"name",parent_location_id/id
"NURSING COLLEGE - Block A",
"NURSING COLLEGE - Block B",
"NURSING COLLEGE - Library",
"NURSING COLLEGE Hostel Building Block C",
"NURSING COLLEGE Hostel Building Block D",
"NURSING COLLEGE Hostel Building Block E",
"NURSING COLLEGE Hostel Building Block F",
"NURSING COLLEGE Hostel Building Block B",
"NURSING COLLEGE Hostel Laundry Building",
"Administration Building",
"Assembly Hall Building Block 15",
"CANTEEN Building",
"CARD ROOM Building",
"CHAPEL Building",
"Condominium  Block 1 bulding",
"Condominium  Block 2 building",
"DELIVERY WARD Building Block 11",
"DOCTORS COMPOUND House 1",
"Generator Room",
"ENT Building",
"EYE Unit Building",
"GENERAL Ward Building",
"Asphalt Pave - m2 2680",
"INCENERATOR Area",
"KITCHEN Building",
"LAUNDRY Building Block 20",
"MALNUTRITION FEEDING UNIT (TFU) Building",
"MATERNITY Ward Building Block 10",
"MCH Building",
"MEDICAL WARD Buildings  Block 9",
"MORTUARY ROOM Building Block 19",
"MOTHER WAITING AREA Building",
"NICU - NEONATOLOGY INTENSIVE CARE UNIT Builidng",
"ON CALL ROOM Building Block 21",
"OPD Building",
"OPERATION THEATER GENERAL Building",
"OPERATION THEATER ORTHOPEDIC Building",
"ORTHOPEDIC WARD Building",
"PAEDIATRIC WARD Building",
"PHARMACY Building (Office and Store)",
"PHYSIOTHERAPY UNIT Building",
"PRIVATE WARD Building Block 14",
"PUBLIC HEALTH Building",
"TOILETTES Block - m2 152,5",
"SISTERS HOUSE Building Block 24",
"SURGICAL WARD building Block 8",
"TB VERANDA Building",
"Block No. 22 - Workshop Office",
"X-RAY and LABORATORY Building Block 13",
"Block No. 4 - Room 1 Registar Office",
"College & Nursing School",
"Block No. 4 - Room 2 - Midwifery Tutor",
"Block No. 4 - Room 3 - Office",
"Block No. 4 - Room 4 Secretary",
"Block No. 4 - Room 8 Computer Room",
"Block No. 4 - Room 10 (A-5)",
"Block No. 4 - Room 9 E-LIBRARY",
"Block No. 4 - Mrs. Fiker's Office : 1",
"College Library",
"Block E - Room 51",
"Block No. 4 - Room No. 5 Principal Tutor",
"Block No. 4 - Room 6 - Staff Tea Room",
"Block E - Room 50",
"College Administration - Demonstration",
"Room 5 College Store",
"Block No. 5 - Room No. 1",
"Block No. 5 - Room No. 2",
"Block No. 5 - Room No. 3",
"Block No. 5",
"Block No. 5 - Study Room 1",
"College & Nursing School - classrooms veranda",
"College Administration",
"Block No. 4 - Corridor",
"College Hostel",
"CHAPEL",
"College Store",
"College Guest House (CUAMM) - Store",
"Block No. 23 - Room No. 13",
"Block No. 23 - Room No. 14",
"Block No. 23 - Room No. 15",
"Block No. 23 - Room No. 16",
"Block No. 23 - Room No. 17",
"Block No. 23 - Room No. 18",
"Block No. 23 - Room No. 19",
"Block No. 23 - Room No. 20",
"Block No. 23 - Room No. 21",
"Block No. 23 - Room No. 22",
"Block No. 23 - Room No. 23",
"Block No. 23 - Room No. 24",
"Block No. 23 - Room No. 25",
"Block No. 23 - Room No. 26",
"Block No. 23 - Room No. 27",
"Block No. 23 - Room No. 28",
"Block No. 23 - Room No. 29",
"Block No. 23 - Room No. 30",
"Block No. 23 - Room No. 31",
"Block No. 23 - Room No. 32",
"Block No. 23 - Room No. 33",
"Block No. 23 - Room No. 35",
"Block No. 23 - Room No. 38",
"Block No. 23 - Room No. 40",
"Block No. 23 - Room No. 43",
"Block No. 23 - Room No. 44",
"Block No. 23 - Room No. 45",
"Block No. 23 - Room No. 49",
"Block No. 23 - Room No. 52",
"Block E - Room 60",
"Block No. 23 - Dining Room",
"Block No. 23 - Kitchen Unit",
"Block No. 23 - Recreation Room 010",
"Block No. 23 - Recreation Room 011",
"Block No. 23 - Recreation Room 012",
"Block No. 23 - Recreation Room 013",
"Block No. 23 - Recreation Room 014",
"Block No. 23 - Recreation Room 015",
"Block No. 23 - Recreation Room 016",
"Block No. 23 - Recreation Room 017",
"College Hostel - CHAPEL",
"College Guest House (CUAMM)",
"College Guest House (CUAMM) - Room 5",
"Block No. 19",
"College Guest House (CUAMM) - Room 7",
"Block No. 23 - Room No. 11",
"Block No. 23 - Room No. 34",
"Block No. 23 - Room No. 36",
"Block No. 23 - Room No. 37",
"Block No. 23 - Room No. 39",
"Block No. 23 - Room No. 42",
"Block No. 23 - Room No. 41",
"Block No. 23 - Room No. 48",
"Block E - Room 61",
"Block E - Room 63",
"Block No. 23 - Recreation Room 02",
"College Store - Room 5",
"Block No. 6 - Room 3",
"Block No. 4 - Room 7 - Office 1",
"Block No. 4 - Room 11 Store TAILER ROOM",
"Block No. 4 - Room 11 Store",
"Store Romm",
"College Guest House (CUAMM) - Room 1",
"College Guest House (CUAMM) - Room 2",
"College Guest House (CUAMM) - Room 3",
"College Guest House (CUAMM) - Room 4",
"College Guest House (CUAMM) - Room 8",
"College Guest House (CUAMM) - Room 9",
"College Guest House (CUAMM) - Room 10",
"College Hostel - Room 11",
"Block No. 23 - Room No. 12",
"Block No. 23 - Room No. 46",
"Block No. 23 - Room No. 47",
"Block No. 23 - Room No. 50",
"Block No. 23 - Room No. 51",
"Block E - Room 52",
"Block E - Room 53",
"Block E - Room 54",
"Block E - Room 55",
"Block E - Room 56",
"Block E - Room 57",
"Block E - Room 58",
"Block E - Room 62",
"Block No. 23 - Kitchen Store",
"Block No. 23 - Recreation Room 01",
"Block No. 23 - Recreation Room 03",
"Block No. 23 - Recreation Room 04",
"Block No. 23 - Recreation Room 05",
"Block No. 23 - Recreation Room 06",
"Block No. 23 - Recreation Room 07",
"Block No. 23 - Recreation Room 08",
"Block No. 23 - Recreation Room 09",
"College Hostel - STORE ROOM",
"College Hostel  - CHAPEL",
"OR (ORTOPEDIC SURGERY)",
"EMERGENCY",
"Blook 3 - Room No. 1",
"Blook 3 - Room No. 3",
"Blook 3 - Room No. 4",
"Blook 3 - Room No. 5",
"Blook 3 - Room No. 7",
"Blook 3 - Room No. 8",
"Blook 3 - Room No. 10",
"Blook 3 - Room No. 11",
"Blook 3 - Corridor",
"Gynecology  - Room 12",
"Block MCH - Room 1",
"Block MCH - Room 6",
"Block MCH - Room 7",
"Patient Registration - Card Room",
"Assembly Hall",
"Oculistic (Eye Unit)",
"Dental Unit - Corridor",
"ENT - Corridor",
"Block No. 10 - Room 3",
"Block MCH 1 - Room 22",
"Block MCH 1 - Room 12",
"Block MCH 1 - Room 13",
"Block MCH - Room 4",
"ART Pharmacy",
"Emergency Room",
"Emergency Room 11",
"Emergency Room 03",
"Emergency Room 04",
"Emergency Room 05",
"Emergency Room 06",
"Emergency Room 07",
"Emergency Room 08",
"Ortho OPD",
"Orthopedic OR - Room 10",
"Block No. 16 - Room 3",
"Block No. 22- Room",
"Laboratory - Room 4",
"Laboratory - Room 1",
"Laboratory",
"Block No. 13",
"IPD/OPD Cashiers - Cashier Room",
"OPD/IPD Dispensing",
"Blook 3 - Room No. 2",
"Patients Receiving Room",
"Block No. 2 - Room No. 19",
"Block No. 11 - Emergency",
"Block No. 11  Staff Room",
"Block No.11 - Patients' Room",
"Block No. 11 - Instr. Room",
"Block No. 6 - Room 3 -",
"Block No. 5 - Room No. 4",
"Block No. 11 - Delivery Room",
"Block No. 11 - Doctor's Office",
"Patients Rooms - Room 1",
"Block No. 6 - TOILET",
"Block No. 6 - Room 2",
"Block No. 6 -MVA ROOM",
"Block No. 6 - HEAD NURSE Room",
"Block No. 6 - ISOLATION Room",
"Block No. 6 - VARANDA",
"Block No. 6 -ENTRACE- GW",
"Block No. 6 - Room  ENTRANCE",
"Block No. 6 - Room 7",
"Block No. 6 - Room 8",
"Block No. 6 - Room 11",
"Block No. 6 - Room 13",
"Eye Operation Room",
"Oculistic (Eye Unit) - Coffee Room",
"Block No. 6 - Room 6",
"Block No. 10 - Room 1",
"Block No. 10 - Room 2",
"Block No. 10 - HEAD NURSE Room",
"Block No. 10 - Room 4",
"Block No. 10 - Nurses' Room",
"MCH Unit - VIA Room 22",
"Emergency Room 02",
"Emergency Room 26",
"Emergency Room 27",
"Emergency Room Verenda",
"Medical Ward Entrance",
"Medical Ward Patient Room 06",
"Medical Ward - Veranda",
"Medical Ward Patient Room 02",
"Surgical Ward Patient Room 07",
"Surgical Ward Patient Room 08",
"Surgical Ward Patient Room 09",
"Surgical Ward Patient Room 10",
"Surgical Ward Patient Room 11",
"Surgical Ward Patient Room 12",
"Surgical Ward Patient Room 13",
"Surgical Ward Patient Room 14",
"Surgical Ward Patient Room 15",
"Paediatric Ward - Child Play Room",
"Paediatric Ward - Rest Room",
"Sisters in charge office",
"Paediatric Ward - Room 5",
"Paediatric Ward - Room 6",
"AFI & PNEUMONIA",
"Paediatric Ward - Room 3",
"Respiratory Disease",
"Orthopedic OR - Entrance",
"Orthopedic OR - Room 1",
"Orthopedic OR - Room 2",
"Orthopedic OR - Veranda",
"Orthopedic OR - Room 3",
"Orthopedic OR - Room 8",
"Orthopedic OR - Room 9",
"Orthopedic OR - Clearing Room",
"Operation Room Room 5",
"Block No. 16 - Room 2",
"Block No. 16 - Room 4",
"MOTHER WAITING ROOM",
"Publich Health Unit",
"Block No. 20 - Room 4",
"Block No. 20 - Room 5",
"Block No. 20 - Room 6",
"Block No. 20 - Room 7",
"Sewing / Ironing Unit",
"Laundry",
"Canteen & Kitchen Unit",
"Electric Unit",
"Block No. ____ - Room",
"Block No.-----VARANDA",
"Block No. 22 - Room 5",
"Laboratory - Room 6",
"Laboratory - Room 7",
"Laboratory - MINI-BLOOD BANK",
"Physiotherapy - Exercises Room",
"Block No. 14 - Room No. 3",
"Block No. 14 - Room No. 4",
"Block No. 14 - Room No. 5",
"Block No. 14 - Room No. 6",
"Block No. 14 - Room No. 7",
"Block No. 14 - Room No. 8",
"Block No. 14 - Room No. 1 DUTY ROOM",
"Block No. 14 - Room No. 2 DUTY ROOM",
"Orthopedic Ward - Patient Room 02",
"NURSE OFFICE",
"Orthopedic Ward - Store Room",
"Orthopedic Ward - TOILETS",
"Surgical Ward - Room 5",
"Medical Ward - Head Nurse Room",
"Sisters Convent - Dining Room",
"Pediatric",
"DELIVERY",
"NICU",
"EYE UNIT",
"ENT",
"OPD_ULTRASOUND",
"MEDICAL WARD",
"DENTAL",
"Orthopedic Ward",
"Ginecology",
"OPD",
"Blook 3 - Room No. 6",
"ENT Clinic Ear Nose Through",
"Block MCH 1 - Room 20 (ORT + Diagnosis Room)",
"Block MCH 1 - Room 21 Vaccination Room",
"Block MCH 1 - Room 23",
"Block MCH 1 -  VCT Room",
"Block MCH - Room 3",
"Block MCH - Room 5",
"Block MCH - Room 8",
"Block No. 2 - Room No. 2 Injection Room",
"Block No. 2 - Room No. 3",
"Block No. 2 - Room No. 4",
"Block No. 2 - Room No. 5",
"Block No. 2 - Room No. 6",
"Block No. 2 - Room No. 8",
"Block No. 2 - Staff Room",
"Emergency - Medication Room",
"Emergency - Recovery Room",
"Block No. 2 - Minor Procedure Room",
"Block No. 2 - Corridor",
"Block No. 2 - Room No. 18",
"Block No. 2 - Room PICT",
"Patient Registration - Waiting Room",
"Block No. 11 - Room 2",
"Block No. 5 - Room No. 5",
"Blook 5 - Room No. 6",
"Patients Rooms - Room 2",
"Block No. 6 - Room 10",
"Oculistic (Eye Unit) - Examination Room",
"Block No. 6 - Room 7 (MVA)",
"Oculistic (Eye Unit) - Dark Room",
"Patient's Waiting Room (pre-surgery)",
"Oculistic (Eye Unit) - Room 12",
"Block MCH 1 - Room 21",
"Block MCH - Room 2",
"MCH Unit - Room 22",
"MCH Unit - Sample Collection Room",
"Medical Ward Patient Room 08",
"Surgical Ward Patient Room 01",
"Surgical Ward Verenda",
"Surgical Ward Patient Room 23",
"Surgical Ward Patient Room 06",
"Paediatric Ward - Nutrition Veranda",
"Paediatric Ward - Nutrition Translation Phase",
"Paediatric Ward - Nutition Store",
"Paediatric Ward - Milk Preparation Room",
"Paediatric Ward - Child Play RoomToilet",
"Paediatric Ward - Store Room",
"Paediatric Ward - Room 8",
"Block No. 20 - Room 3",
"Block No. 20 - Room 8",
"Block No. 20 - Room 9",
"Block No. 20 - Room 10",
"Block No. 20 - Room 14",
"Block No. 20 - Room 15",
"Laboratory - Block No. 22 - Room",
"Laboratory - Block No. 20 - Room 10",
"Block No. 14 - Room No. 1",
"Orthopedic Ward - PRIVATE ROOM",
"Orthopedic Ward - Veranda",
"Orthopedic Ward - Room 5",
"Gardening Services",
"Blook 3 - Room No. 9",
"Blook 3 - Room No. 12 Guards",
"Block MCH 1 - Corridor",
"Block No. 2 - Head Nurse's Office",
"Patient Registration",
"Block No. 5 - Room 2",
"Block No. 5 - Room 3",
"Block No. 11 - Room 5",
"Block No. 11 - Room 6",
"Block No. 11 - Nurses' Office",
"Block No. 11 - Store, Sluice, Corridor",
"Block No. 6 - Room 6 / Toilet",
"Oculistic (Eye Unit) - Toilets/Dressing Room (Male & Female)",
"Maternity ward - Inside Veranda",
"Gynecology  - Room 13",
"Emergency Room 24",
"Emergency Room 25",
"Medical Ward Toilet",
"Medical Ward Patient Room 07",
"Surgical Ward Patient Room 22",
"Paediatric Ward - Nutrition Ward Phase 2",
"Paediatric Ward  - Milk Preparation Room",
"Paediatric Ward  - Child Play Room",
"Paediatric Ward  - Duty Room",
"Paediatric Ward - Veranda",
"Orthopedic OR - Room 4",
"Orthopedic OR - Room 5",
"Orthopedic OR - Room 6",
"Orthopedic OR - Room 7",
"General OR - Room 5",
"BLOCK No.16 - ROOM 1",
"Block No. 20 - Room 1 (Store)",
"Block No. 20 - Room 2 (Store)",
"Block No. 20 - Room 0",
"Block No. 20 - Room 1",
"Block No. 20 - Room 2",
"Block No. 20 - Room 11",
"Canteen",
"Main Store - Room",
"Laboratory - Block No. 22 - Room 5",
"Laboratory - Room 5",
"Laboratory - Room 2",
"Laboratory - Corridor",
"Block No. 14 - Room No. 2",
"Orthopedic Ward - Patients Rooms - Room 1",
"TOILETS",
"On Calling Room - Room 20",
"On Calling Room - Room 21",
"Main Store",
"Surgical Ward - Room No.5",
"Medical Ward - Head Nurse",
"OPD  - Room 29 - PICT Room",
"OPD  - Room 28",
"Sisters Convent - Store Room",
"Sisters Convent - Room No.6",
"Sisters Convent - Laundary Room",
"Sisters Convent - Room 7",
"Sisters Convent - Room 10",
"Sisters Convent - Room No.9",
"Sisters Convent - Room No.2",
"Sisters Convent - Room No.3",
"Sisters Convent - Room No.4",
"Sisters Convent - Room No.8",
"Sisters Convent - Room No.12",
"Sisters Convent - Room 11",
"Sisters Convent - Room No.5",
"Sisters Convent - Main Store Room",
"Sisters Convent - Room No.1",
"Internal Residential Staff Houses",
"Sisters House",
"Store Room",
"Sisters Convent - Room 5",
"Sisters Convent - Room 6",
"Laundary Room",
"Sisters Convent - Kitchen",
"Sisters Convent - Veranda",
"Sisters Convent - Room 9",
"Sisters Convent - Room 1",
"Sisters Convent - Room 2",
"Sisters Convent - Room 3",
"Sisters Convent - Room 4",
"Sisters Convent - Room 8",
"Sisters Convent - Room 12",
"Workshop 4 - Block No. 22",
"Workshop 3 - Block No. 22",
"Water Treatment Plant",
