id,code,name,parent_id:id,state,type
isf_wolisso_data.AA000,AA000,St.Luke Hospital,,open,Analytic View
isf_wolisso_data.AA001,AA001,Cost Centers,isf_wolisso_data.AA000,open,Analytic View
isf_wolisso_data.AA001001,AA001001,Administration,isf_wolisso_data.AA001,open,Analytic View
isf_wolisso_data.AA00100101,AA00100101,Accounts Dept.,isf_wolisso_data.AA001001,open,normal
isf_wolisso_data.AA00100102,AA00100102,HR Dept.,isf_wolisso_data.AA001001,open,normal
isf_wolisso_data.AA00100103,AA00100103,Monitor & Eval. Unit,isf_wolisso_data.AA001001,open,normal
isf_wolisso_data.AA00100104,AA00100104,Management,isf_wolisso_data.AA001001,open,normal
isf_wolisso_data.AA00100105,AA00100105,Operations and Logistic,isf_wolisso_data.AA001001,open,normal
isf_wolisso_data.AA001002,AA001002,General Services,isf_wolisso_data.AA001,open,Analytic View
isf_wolisso_data.AA00100201,AA00100201,Security Services,isf_wolisso_data.AA001002,open,normal
isf_wolisso_data.AA00100202,AA00100202,Gardening Services,isf_wolisso_data.AA001002,open,normal
isf_wolisso_data.AA00100203,AA00100203,Workshop Maintenances Services,isf_wolisso_data.AA001002,open,normal
isf_wolisso_data.AA00100204,AA00100204,Electric Unit,isf_wolisso_data.AA001002,open,normal
isf_wolisso_data.AA00100205,AA00100205,Generator,isf_wolisso_data.AA001002,open,normal
isf_wolisso_data.AA00100206,AA00100206,"Water Supplies, Storage and Distribution",isf_wolisso_data.AA001002,open,normal
isf_wolisso_data.AA00100207,AA00100207,Canteen & Kitchen Unit,isf_wolisso_data.AA001002,open,normal
isf_wolisso_data.AA00100208,AA00100208,Laundry Unit,isf_wolisso_data.AA001002,open,normal
isf_wolisso_data.AA00100209,AA00100209,Disposal / Incenerator Unit,isf_wolisso_data.AA001002,open,normal
isf_wolisso_data.AA00100210,AA00100210,Cleaning Services,isf_wolisso_data.AA001002,open,normal
isf_wolisso_data.AA00100211,AA00100211,Ambulance Services,isf_wolisso_data.AA001002,open,normal
isf_wolisso_data.AA00100212,AA00100212,Other Transport Services,isf_wolisso_data.AA001002,open,normal
isf_wolisso_data.AA001003,AA001003,Pharmacy,isf_wolisso_data.AA001,open,Analytic View
isf_wolisso_data.AA00100301,AA00100301,Main Store,isf_wolisso_data.AA001003,open,normal
isf_wolisso_data.AA00100302,AA00100302,IPD / OPD Dispensing,isf_wolisso_data.AA001003,open,normal
isf_wolisso_data.AA00100303,AA00100303,Dispensing ART,isf_wolisso_data.AA001003,open,normal
isf_wolisso_data.AA001004,AA001004,OPD,isf_wolisso_data.AA001,open,Analytic View
isf_wolisso_data.AA00100401,AA00100401,Emergency,isf_wolisso_data.AA001004,open,normal
isf_wolisso_data.AA00100402,AA00100402,Adults,isf_wolisso_data.AA001004,open,normal
isf_wolisso_data.AA00100403,AA00100403,MCH Unit (under 5),isf_wolisso_data.AA001004,open,normal
isf_wolisso_data.AA00100404,AA00100404,ART Clinic,isf_wolisso_data.AA001004,open,normal
isf_wolisso_data.AA00100405,AA00100405,Chronic,isf_wolisso_data.AA001004,open,normal
isf_wolisso_data.AA00100406,AA00100406,TB Clinic,isf_wolisso_data.AA001004,open,normal
isf_wolisso_data.AA00100407,AA00100407,Antenatal Clinic,isf_wolisso_data.AA001004,open,normal
isf_wolisso_data.AA00100408,AA00100408,ENT Clinic Ear Nose Through,isf_wolisso_data.AA001004,open,normal
isf_wolisso_data.AA00100409,AA00100409,Mental Clinic (Psycologis/Psychiatric,isf_wolisso_data.AA001004,open,normal
isf_wolisso_data.AA00100410,AA00100410,Physiotherapy,isf_wolisso_data.AA001004,open,normal
isf_wolisso_data.AA001005,AA001005,OPD/Specialized Clinic,isf_wolisso_data.AA001,open,Analytic View
isf_wolisso_data.AA00100501,AA00100501,Orthopedic Clinic,isf_wolisso_data.AA001005,open,normal
isf_wolisso_data.AA00100502,AA00100502,Internist,isf_wolisso_data.AA001005,open,normal
isf_wolisso_data.AA00100503,AA00100503,Surgery,isf_wolisso_data.AA001005,open,normal
isf_wolisso_data.AA00100504,AA00100504,Gynecology,isf_wolisso_data.AA001005,open,normal
isf_wolisso_data.AA00100505,AA00100505,Oculistic (Eye Unit),isf_wolisso_data.AA001005,open,normal
isf_wolisso_data.AA00100506,AA00100506,Oculistic Operation Room,isf_wolisso_data.AA001005,open,normal
isf_wolisso_data.AA00100507,AA00100507,Dental Unit,isf_wolisso_data.AA001005,open,normal
isf_wolisso_data.AA00100508,AA00100508,Ultrasound,isf_wolisso_data.AA001005,open,normal
isf_wolisso_data.AA001006,AA001006,Doctors & Physician,isf_wolisso_data.AA001,open,Analytic View
isf_wolisso_data.AA001007,AA001007,X-RAY,isf_wolisso_data.AA001,open,Analytic View
isf_wolisso_data.AA001008,AA001008,LABORATORY,isf_wolisso_data.AA001,open,Analytic View
isf_wolisso_data.AA001009,AA001009,IPD,isf_wolisso_data.AA001,open,Analytic View
isf_wolisso_data.AA00100901,AA00100901,Physiotherapy,isf_wolisso_data.AA001009,open,normal
isf_wolisso_data.AA00100902,AA00100902,Surgical Ward,isf_wolisso_data.AA001009,open,normal
isf_wolisso_data.AA00100903,AA00100903,Mother Waiting Area,isf_wolisso_data.AA001009,open,normal
isf_wolisso_data.AA00100904,AA00100904,Maternity ward,isf_wolisso_data.AA001009,open,normal
isf_wolisso_data.AA00100905,AA00100905,Delivery Ward,isf_wolisso_data.AA001009,open,normal
isf_wolisso_data.AA00100906,AA00100906,Medical Ward,isf_wolisso_data.AA001009,open,normal
isf_wolisso_data.AA00100907,AA00100907,General Ward,isf_wolisso_data.AA001009,open,normal
isf_wolisso_data.AA00100908,AA00100908,Paediatric Ward,isf_wolisso_data.AA001009,open,normal
isf_wolisso_data.AA00100909,AA00100909,Neonatal Clinic,isf_wolisso_data.AA001009,open,normal
isf_wolisso_data.AA00100910,AA00100910,Orthopedic Ward,isf_wolisso_data.AA001009,open,normal
isf_wolisso_data.AA001010,AA001010,Operation Rooms,isf_wolisso_data.AA001,open,Analytic View
isf_wolisso_data.AA00101001,AA00101001,General OR,isf_wolisso_data.AA001010,open,normal
isf_wolisso_data.AA00101002,AA00101002,Orthopedic OR,isf_wolisso_data.AA001010,open,normal
isf_wolisso_data.AA001011,AA001011,College & Nursing School,isf_wolisso_data.AA001,open,Analytic View
isf_wolisso_data.AA00101101,AA00101101,College Administration,isf_wolisso_data.AA001011,open,normal
isf_wolisso_data.AA00101102,AA00101102,Classrooms,isf_wolisso_data.AA001011,open,normal
isf_wolisso_data.AA00101103,AA00101103,Library,isf_wolisso_data.AA001011,open,normal
isf_wolisso_data.AA00101104,AA00101104,Students Hostel,isf_wolisso_data.AA001011,open,normal
isf_wolisso_data.AA00101105,AA00101105,Kitchen & Canteen Unit,isf_wolisso_data.AA001011,open,normal
isf_wolisso_data.AA00101106,AA00101106,College Sewing,isf_wolisso_data.AA001011,open,normal
isf_wolisso_data.AA00101107,AA00101107,College Security,isf_wolisso_data.AA001011,open,normal
isf_wolisso_data.AA00101108,AA00101108,Kitchen Hostel,isf_wolisso_data.AA001011,open,normal
isf_wolisso_data.AA00101109,AA00101109,College Gardening,isf_wolisso_data.AA001011,open,normal
isf_wolisso_data.AA00101110,AA00101110,College Cleaning,isf_wolisso_data.AA001011,open,normal
isf_wolisso_data.AA001012,AA001012,Public Health Unit,isf_wolisso_data.AA001,open,Analytic View
isf_wolisso_data.AA001013,AA001013,Chapel,isf_wolisso_data.AA001,open,Analytic View
isf_wolisso_data.AA001014,AA001014,Assembly Hall,isf_wolisso_data.AA001,open,Analytic View
isf_wolisso_data.AA001015,AA001015,Residential Houses,isf_wolisso_data.AA001,open,Analytic View
isf_wolisso_data.AA00101501,AA00101501,Sisters Convent,isf_wolisso_data.AA001015,open,normal
isf_wolisso_data.AA00101502,AA00101502,Condominium (External Staff Houses),isf_wolisso_data.AA001015,open,normal
isf_wolisso_data.AA00101503,AA00101503,Internal Residential Staff Houses,isf_wolisso_data.AA001015,open,normal
