id,code,name,user_type:id,type,parent_id:id,user_type:id,reconcile
0,0,St. Luke Hospital - Wolisso,account.data_account_type_view,view,,account.data_account_type_view,FALSE
1,1,ASSETS,account.data_account_type_view,view,0,account.account_type_asset_view1,FALSE
1000,1000,CASH AND BANK ACCOUNTS (100100 - 109900),account.data_account_type_view,view,1,account.account_type_asset_view1,FALSE
100100,100100,Cash on Hand Main Cashier,account.data_account_type_cash,liquidity,1000,account.data_account_type_cash,TRUE
100200,100200,Cash on Hand Purchase Fund,account.data_account_type_cash,liquidity,1000,account.data_account_type_cash,TRUE
100300,100300,Working Fund Petty Cash (Sr. Gloria),account.data_account_type_cash,liquidity,1000,account.data_account_type_cash,TRUE
101100,101100,Commercial Bank of Ethiopia - Addis Ababa Branch - C/A No. 1000000930362,account.data_account_type_bank,liquidity,1000,account.data_account_type_bank,TRUE
101200,101200,Commercial Bank of Ethiopia - Wolisso Branch - C/A No. 1000027003404,account.data_account_type_bank,liquidity,1000,account.data_account_type_bank,TRUE
101300,101300,Wegagen Bank - Wolisso Branch - C/A No. 00062,account.data_account_type_bank,liquidity,1000,account.data_account_type_bank,TRUE
101400,101400,Commercial Bank of Ethiopia - CBM Project Eye Unit - C/A No. 10000155915459,account.data_account_type_bank,liquidity,1000,account.data_account_type_bank,TRUE
101800,101800,Commercial Bank of Ethiopia - Wolisso Branch - Nursing College - C/A No. 1000155915197,account.data_account_type_bank,liquidity,1000,account.data_account_type_bank,TRUE
102100,102100,Commercial Bank of Ethiopia - Addis Ababa - S/A No. 1000000444228,account.data_account_type_bank,liquidity,1000,account.data_account_type_bank,TRUE
102200,102200,Commercial Bank of Ethiopia - Wolisso Branch - S/A No. 1000026986536,account.data_account_type_bank,liquidity,1000,account.data_account_type_bank,TRUE
102300,102300,Commercial Bank of Ethiopia - Wolisso Branch - CBM Eye Unit - S/A No. 1000026982867,account.data_account_type_bank,liquidity,1000,account.data_account_type_bank,TRUE
102400,102400,Commercial Bank of Ethiopia - Wolisso Branch - Provident Fund - S/A No. 1000026980724,account.data_account_type_bank,liquidity,1000,account.data_account_type_bank,TRUE
102700,102700,Commercial Bank of Ethiopia - Addis Ababa Branch -Project  Zentrastelle S/A No. 1000000429717,account.data_account_type_bank,liquidity,1000,account.data_account_type_bank,TRUE
1100,1100,ACCOUNTS RECEIVABLES (1101- 1102),account.data_account_type_view,view,1,account.account_type_asset_view1,FALSE
110100,110100,Accounts Receivables/Trade (Sub.Ledger) (110100-110199),account.data_account_type_view,view,1100,account.account_type_asset_view1,FALSE
110101,110101,Ambo University,account.data_account_type_receivable,receivable,110100,account.data_account_type_receivable,TRUE
110102,110102,EEPC Wolisso,account.data_account_type_receivable,receivable,110100,account.data_account_type_receivable,TRUE
110103,110103,ELPA Wolkite,account.data_account_type_receivable,receivable,110100,account.data_account_type_receivable,TRUE
110104,110104,Wolga,account.data_account_type_receivable,receivable,110100,account.data_account_type_receivable,TRUE
110105,110105,Gibe,account.data_account_type_receivable,receivable,110100,account.data_account_type_receivable,TRUE
110106,110106,Nib Bank,account.data_account_type_receivable,receivable,110100,account.data_account_type_receivable,TRUE
110107,110107,Police S.W.S.Z,account.data_account_type_receivable,receivable,110100,account.data_account_type_receivable,TRUE
110108,110108,Belenoma,account.data_account_type_receivable,receivable,110100,account.data_account_type_receivable,TRUE
110109,110109,Ethiopian Telecom,account.data_account_type_receivable,receivable,110100,account.data_account_type_receivable,TRUE
110110,110110,Emdber,account.data_account_type_receivable,receivable,110100,account.data_account_type_receivable,TRUE
110111,110111,Elsamex,account.data_account_type_receivable,receivable,110100,account.data_account_type_receivable,TRUE
110112,110112,Ethiopian Assemblies of God Church,account.data_account_type_receivable,receivable,110100,account.data_account_type_receivable,TRUE
110113,110113,CBHI - Community Based Health Insurance - Nono,account.data_account_type_receivable,receivable,110100,account.data_account_type_receivable,TRUE
110200,110200,Accounts Receivable/General (110200-110299),account.data_account_type_view,view,1100,account.account_type_asset_view1,FALSE
110201,110201,Accounts Receivable Others,account.data_account_type_receivable,receivable,110200,account.data_account_type_receivable,TRUE
110202,110202,Staff Debtors (cash advances),account.data_account_type_receivable,receivable,110200,account.data_account_type_receivable,TRUE
110203,110203,Receivables - Grants / Donation Capital Assets,account.data_account_type_receivable,receivable,110200,account.data_account_type_receivable,TRUE
110204,110204,Staff Provident Fund Clearance,account.data_account_type_receivable,receivable,110200,account.data_account_type_receivable,TRUE
110205,110205,Staff Debtors Clearance,account.data_account_type_receivable,receivable,110200,account.data_account_type_receivable,TRUE
110206,110206,Purchase Cash Advances,account.data_account_type_receivable,receivable,110200,account.data_account_type_receivable,TRUE
110207,110207,Sundry Debtors,account.data_account_type_receivable,receivable,110200,account.data_account_type_receivable,TRUE
110208,110208,Suspanse Receivable,account.data_account_type_receivable,receivable,110200,account.data_account_type_receivable,TRUE
110209,110209,(Provision for Doubtful Debts),account.data_account_type_receivable,receivable,110200,account.data_account_type_receivable,TRUE
1200,1200,PREPAIMENTS & ACCRUED INCOME (120100-125000),account.data_account_type_view,view,1,account.account_type_asset_view1,FALSE
120100,120100,Prepayments,account.data_account_type_asset,other,1200,account.data_account_type_asset,FALSE
120200,120200,Prepaid Insurance,account.data_account_type_asset,other,1200,account.data_account_type_asset,FALSE
120300,120300,Others Prepayment,account.data_account_type_asset,other,1200,account.data_account_type_asset,FALSE
120400,120400,Accrued Incomes,account.data_account_type_asset,other,1200,account.data_account_type_asset,FALSE
1300,1300,INVENTORIES (1301-1303),account.data_account_type_view,view,1,account.account_type_asset_view1,FALSE
1301,1301,INVENTORIES - MEDICINES (130100-130199),account.data_account_type_view,view,1300,account.account_type_asset_view1,FALSE
130101,130101,Medicines - Main Stock,account.data_account_type_asset,other,1301,account.data_account_type_asset,FALSE
130102,130102,Medicines - Sub Store,account.data_account_type_asset,other,1301,account.data_account_type_asset,FALSE
130103,130103,Medicines - Dispensing,account.data_account_type_asset,other,1301,account.data_account_type_asset,FALSE
130110,130110,Goods in Transit Medicines,account.data_account_type_asset,other,1301,account.data_account_type_asset,FALSE
1302,1302,INVENTORIES - MEDICAL SUPPLIES (130200-130299),account.data_account_type_view,view,1300,account.account_type_asset_view1,FALSE
130201,130201,Medical Supplies - Main Stocks,account.data_account_type_asset,other,1302,account.data_account_type_asset,FALSE
130202,130202,Medical Supplies - Main Stocks / Lab. Reagents,account.data_account_type_asset,other,1302,account.data_account_type_asset,FALSE
130203,130203,Medical Supplies - Sub Store,account.data_account_type_asset,other,1302,account.data_account_type_asset,FALSE
130204,130204,Medical Supplies - Sub Store / Lab.Reagents,account.data_account_type_asset,other,1302,account.data_account_type_asset,FALSE
130205,130205,Medical Supplies - Dispensing,account.data_account_type_asset,other,1302,account.data_account_type_asset,FALSE
130206,130206,Medical Supplies - Dispensing / Lab.Reagents,account.data_account_type_asset,other,1302,account.data_account_type_asset,FALSE
130210,130210,Goods in Transit Medical Supplies,account.data_account_type_asset,other,1302,account.data_account_type_asset,FALSE
1303,1303,INVENTORIES - GENERAL SUPPLIES (1303000-130399),account.data_account_type_view,view,1300,account.account_type_asset_view1,FALSE
130301,130301,Office Supplies Hospital,account.data_account_type_asset,other,1303,account.data_account_type_asset,FALSE
130302,130302,Office Supplies College,account.data_account_type_asset,other,1303,account.data_account_type_asset,FALSE
130304,130304,Food Hospital,account.data_account_type_asset,other,1303,account.data_account_type_asset,FALSE
130305,130305,Food College Hostel,account.data_account_type_asset,other,1303,account.data_account_type_asset,FALSE
130306,130306,Cleaning & Laundry supplies Hospital,account.data_account_type_asset,other,1303,account.data_account_type_asset,FALSE
130307,130307,Cleaning & Laundry supplies College,account.data_account_type_asset,other,1303,account.data_account_type_asset,FALSE
130308,130308,Uniform & Outfit,account.data_account_type_asset,other,1303,account.data_account_type_asset,FALSE
130309,130309,Building Supplies Hospital,account.data_account_type_asset,other,1303,account.data_account_type_asset,FALSE
130310,130310,Building Supplies College,account.data_account_type_asset,other,1303,account.data_account_type_asset,FALSE
130311,130311,Electrical Supplies Hospital,account.data_account_type_asset,other,1303,account.data_account_type_asset,FALSE
130312,130312,Electrical Supplies College,account.data_account_type_asset,other,1303,account.data_account_type_asset,FALSE
130313,130313,Spare parts Hospital,account.data_account_type_asset,other,1303,account.data_account_type_asset,FALSE
130314,130314,Spare parts College,account.data_account_type_asset,other,1303,account.data_account_type_asset,FALSE
130315,130315,"General Supplies Hospital (bedsheets, etc.)",account.data_account_type_asset,other,1303,account.data_account_type_asset,FALSE
130316,130316,Fuel for Generators,account.data_account_type_asset,other,1303,account.data_account_type_asset,FALSE
1400,1400,FIXED ASSETS (1401-1420),account.data_account_type_asset,view,1,account.account_type_asset_view1,FALSE
1401,1401,"PROPERTY, PLANT AND EQUIPMENT (140100-141900)",account.data_account_type_view,view,1400,account.account_type_asset_view1,FALSE
140101,140101,Buildings and Fixture Hospital,account.data_account_type_asset,other,1401,account.data_account_type_asset,FALSE
140102,140102,(Accumulated Depreciation - Buildings and Fixtures Hospital),account.data_account_type_asset,other,1401,account.data_account_type_asset,FALSE
140201,140201,Buildings and Fixture College,account.data_account_type_asset,other,1401,account.data_account_type_asset,FALSE
140202,140202,(Accumulated Depreciation - Buildings and Fixtures College),account.data_account_type_asset,other,1401,account.data_account_type_asset,FALSE
140301,140301,Hospital Furniture,account.data_account_type_asset,other,1401,account.data_account_type_asset,FALSE
140302,140302,(Accumulated Depreciation - Hospital Furniture),account.data_account_type_asset,other,1401,account.data_account_type_asset,FALSE
140401,140401,Hospital Equipments,account.data_account_type_asset,other,1401,account.data_account_type_asset,FALSE
140402,140402,(Accumulated Depreciation - Hospital Equipments),account.data_account_type_asset,other,1401,account.data_account_type_asset,FALSE
140501,140501,College Furniture,account.data_account_type_asset,other,1401,account.data_account_type_asset,FALSE
140502,140502,(Accumulated Depreciation - College Furniture),account.data_account_type_asset,other,1401,account.data_account_type_asset,FALSE
140601,140601,College Equipment,account.data_account_type_asset,other,1401,account.data_account_type_asset,FALSE
140602,140602,(Accumulated Depreciation - College Equipments),account.data_account_type_asset,other,1401,account.data_account_type_asset,FALSE
140701,140701,Hospital IT Systems / Equipment,account.data_account_type_asset,other,1401,account.data_account_type_asset,FALSE
140702,140702,(Accumulated Depreciation - Hospital IT Systems / Equipments),account.data_account_type_asset,other,1401,account.data_account_type_asset,FALSE
140801,140801,College IT Systems / Equipment,account.data_account_type_asset,other,1401,account.data_account_type_asset,FALSE
140802,140802,(Accumulated Depreciation - College IT Systems / Equipments),account.data_account_type_asset,other,1401,account.data_account_type_asset,FALSE
140901,140901,Residential Furniture,account.data_account_type_asset,other,1401,account.data_account_type_asset,FALSE
140902,140902,(Accumulated Depreciation Residential Furniture),account.data_account_type_asset,other,1401,account.data_account_type_asset,FALSE
141001,141001,Residential Equipment,account.data_account_type_asset,other,1401,account.data_account_type_asset,FALSE
141002,141002,(Accumulated Depreciation Residential Equipment),account.data_account_type_asset,other,1401,account.data_account_type_asset,FALSE
141101,141101,Motor Vehicles/Motor Cycles,account.data_account_type_asset,other,1401,account.data_account_type_asset,FALSE
141102,141102,(Accumulated Depreciation Motor Vehicles/Motor Cycles),account.data_account_type_payable,other,1401,account.data_account_type_asset,FALSE
141201,141201,Hospital Low Value Assets,account.data_account_type_payable,other,1401,account.data_account_type_asset,FALSE
141202,141202,(Accumulated Depreciation - Hospital Low Value Assets,account.data_account_type_payable,other,1401,account.data_account_type_asset,FALSE
141301,141301,College Low Value Assets,account.data_account_type_payable,other,1401,account.data_account_type_asset,FALSE
141302,141302,(Accumulated Depreciation - College low value Assets),account.data_account_type_payable,other,1401,account.data_account_type_asset,FALSE
1420,1420,CAPITAL WORKS IN PROGRESS (142001-142099),account.data_account_type_view,view,1400,account.account_type_asset_view1,FALSE
142001,142001,Construction in Progress_Water Tower,account.data_account_type_payable,other,1420,account.data_account_type_asset,FALSE
142002,142002,Construction in Progress_Incinerator,account.data_account_type_payable,other,1420,account.data_account_type_asset,FALSE
142003,142003,Construction in Progress_Building.....,account.data_account_type_payable,other,1420,account.data_account_type_asset,FALSE
2,2,LIABILITIES (2000-2300),account.data_account_type_view,view,0,account.account_type_liability_view1,FALSE
2000,2000,ACCOUNTS PAYABLES (2001-2201),account.data_account_type_view,view,2,account.account_type_liability_view1,FALSE
2001,2001,A/C Payables Trade (Subsidiary Ledger) (200100-200199),account.data_account_type_view,view,2000,account.account_type_liability_view1,FALSE
200101,200101,A/P Yusura,account.data_account_type_payable,payable,2001,account.data_account_type_payable,TRUE
200102,200102,A/P PFSA,account.data_account_type_payable,payable,2001,account.data_account_type_payable,TRUE
200103,200103,A/P Horn Pharmaceuticals,account.data_account_type_payable,payable,2001,account.data_account_type_payable,TRUE
200104,200104,A/P ESC Watson,account.data_account_type_payable,payable,2001,account.data_account_type_payable,TRUE
200105,200105,A/P Belay Taddese Water Construction,account.data_account_type_payable,payable,2001,account.data_account_type_payable,TRUE
200106,200106,A/P AM Pharmaceutical,account.data_account_type_payable,payable,2001,account.data_account_type_payable,TRUE
200107,200107,A/P ELSAMEX Road Constructions,account.data_account_type_payable,payable,2001,account.data_account_type_payable,TRUE
2002,2002,Other Accounts Payables (200200-200900),account.data_account_type_view,view,2000,account.account_type_liability_view1,FALSE
200201,200201,Loan Payable,account.data_account_type_payable,payable,2002,account.data_account_type_payable,TRUE
200202,200202,Sundry Creditors,account.data_account_type_payable,payable,2002,account.data_account_type_payable,TRUE
200300,200300,Payroll Income Tax Payables,account.data_account_type_payable,payable,2002,account.data_account_type_payable,TRUE
200400,200400,Withholding Tax Payables (Third Parties),account.data_account_type_payable,payable,2002,account.data_account_type_payable,TRUE
200500,200500,VAT Payable,account.data_account_type_payable,payable,2002,account.data_account_type_payable,TRUE
200600,200600,Pension Payable (Staff 7% / Hospital 11%),account.data_account_type_payable,payable,2002,account.data_account_type_payable,TRUE
200700,200700,Provident Fund Payable (Staff 5% / Hospital 10%),account.data_account_type_payable,payable,2002,account.data_account_type_payable,TRUE
200800,200800,Net Salaries Payables,account.data_account_type_payable,payable,2002,account.data_account_type_payable,TRUE
200900,200900,Other Current Liabilities,account.data_account_type_payable,payable,2002,account.data_account_type_payable,TRUE
2100,2100,ADVANCES FROM CUSTEMERS (210001-210099),account.data_account_type_view,view,2000,account.account_type_liability_view1,FALSE
210001,210001,Ambo University,account.data_account_type_payable,payable,2100,account.data_account_type_payable,TRUE
210002,210002,EEPC Wolisso,account.data_account_type_payable,payable,2100,account.data_account_type_payable,TRUE
210003,210003,ELPA Wolkite,account.data_account_type_payable,payable,2100,account.data_account_type_payable,TRUE
210004,210004,Wolga,account.data_account_type_payable,payable,2100,account.data_account_type_payable,TRUE
210005,210005,Gibe,account.data_account_type_payable,payable,2100,account.data_account_type_payable,TRUE
210006,210006,Nib Bank,account.conf_account_type_equity,payable,2100,account.data_account_type_payable,TRUE
210007,210007,Police S.W.S.Z,account.conf_account_type_equity,payable,2100,account.data_account_type_payable,TRUE
210008,210008,Belenoma,account.conf_account_type_equity,payable,2100,account.data_account_type_payable,TRUE
210009,210009,Ethiopian Telecom,account.data_account_type_income,payable,2100,account.data_account_type_payable,TRUE
210010,210010,Emdber,account.data_account_type_income,payable,2100,account.data_account_type_payable,TRUE
210011,210011,Elsamex,account.data_account_type_income,payable,2100,account.data_account_type_payable,TRUE
210012,210012,Ethiopian Assemblies of God Church,account.data_account_type_income,payable,2100,account.data_account_type_payable,TRUE
210013,210013,CBHI - Community Based Health Insurance - Nono,account.data_account_type_income,payable,2100,account.data_account_type_payable,TRUE
2200,2200,LONG TERMS LIABILITIES (210100-210200,account.data_account_type_view,view,2000,account.account_type_equity_view1,FALSE
220100,220100,Severance Payable Hospital,account.data_account_type_income,payable,2200,account.data_account_type_payable,TRUE
220200,220200,Severance Payable College,account.data_account_type_income,payable,2200,account.data_account_type_payable,TRUE
2300,2300,ACCRUED EXPENSES & PREPAID INCOMES (230001-230099),account.data_account_type_view,view,2000,account.account_type_equity_view1,FALSE
230001,230001,"Accrued Professional Services (Legal, Audit, Accountancy, Etc.)",account.data_account_type_income,payable,2300,account.data_account_type_payable,TRUE
230002,230002,Accrued General Services,account.data_account_type_income,payable,2300,account.data_account_type_payable,TRUE
230003,230003,Other Accrued Expenses,account.data_account_type_income,payable,2300,account.data_account_type_payable,TRUE
230004,230004,Prepaid Incomes,account.data_account_type_income,payable,2300,account.data_account_type_payable,TRUE
230005,230005,Deferred Capital Grants/Donations,account.data_account_type_income,payable,2300,account.data_account_type_payable,TRUE
3,3,EQUITY,account.data_account_type_view,view,0,account.account_type_equity_view1,FALSE
3000,3000,ACCUMULATED FUND (300100-300300),account.data_account_type_view,view,3,account.account_type_equity_view1,FALSE
300100,300100,Prior year adjustment,account.data_account_type_income,other,3000,account.conf_account_type_equity,FALSE
300200,300200,Net Income / Net Loss Current Period,account.data_account_type_income,other,3000,account.conf_account_type_equity,FALSE
300300,300300,Retained Earnings / Losses (Fund Balance),account.data_account_type_income,other,3000,account.conf_account_type_equity,FALSE
4,4,INCOMES (4000-4400),account.data_account_type_view,view,0,account.account_type_income_view1,FALSE
4000,4000,RECURRENT INCOMES (400100-409900),account.data_account_type_view,view,4,account.account_type_income_view1,FALSE
400100,400100,Income - In Patients Service,account.data_account_type_income,other,4000,account.data_account_type_income,FALSE
400200,400200,Income - Out Patients Service,account.data_account_type_income,other,4000,account.data_account_type_income,FALSE
400300,400300,Income - Patient Card,account.data_account_type_income,other,4000,account.data_account_type_income,FALSE
400400,400400,Income - Eye unit service,account.data_account_type_income,other,4000,account.data_account_type_income,FALSE
400500,400500,Income - Laboratory,account.data_account_type_income,other,4000,account.data_account_type_income,FALSE
400501,400501,Other Incomes,account.data_account_type_income,other,4000,account.data_account_type_income,FALSE
400600,400600,Income - Pharmacy,account.data_account_type_income,other,4000,account.data_account_type_income,FALSE
400700,400700,Income - College Service,account.data_account_type_income,other,4000,account.data_account_type_income,FALSE
400800,400800,Income - Other training,account.data_account_type_income,other,4000,account.data_account_type_income,FALSE
400900,400900,Income - Tuition fees,account.data_account_type_income,other,4000,account.data_account_type_income,FALSE
401000,401000,Income - House Rent,account.data_account_type_income,other,4000,account.data_account_type_income,FALSE
401100,401100,Income - Canteen rent and Electricity,account.data_account_type_income,other,4000,account.data_account_type_income,FALSE
401200,401200,Income - Car use and Ambulance,account.data_account_type_income,other,4000,account.data_account_type_income,FALSE
401300,401300,Income - Hall rent,account.data_account_type_income,other,4000,account.data_account_type_income,FALSE
401400,401400,Income - Other operating incomes (miscellaneous),account.data_account_type_income,other,4000,account.data_account_type_income,FALSE
401500,401500,Exempted Services to Third Parties - OPD,account.data_account_type_income,other,4000,account.data_account_type_income,FALSE
401600,401600,Exempted Services to Third Parties - IPD,account.data_account_type_income,other,4000,account.data_account_type_income,FALSE
401700,401700,Exempted Services to Hospital Staff - OPD,account.data_account_type_income,other,4000,account.data_account_type_income,FALSE
401800,401800,Exempted Services to Hospital Staff - IPD,account.data_account_type_income,other,4000,account.data_account_type_income,FALSE
401900,401900,Exempted Services to College Staff - OPD,account.data_account_type_income,other,4000,account.data_account_type_income,FALSE
402000,402000,Exempted Services to College Staff - IPD,account.data_account_type_income,other,4000,account.data_account_type_income,FALSE
402100,402100,Exempted Services to College Students - OPD,account.data_account_type_income,other,4000,account.data_account_type_income,FALSE
402200,402200,Exempted Services to College Students - IPD,account.data_account_type_income,other,4000,account.data_account_type_income,FALSE
4100,4100,GRANTS / CONTRIBUTIONS (410100-419900),account.data_account_type_view,view,4,account.account_type_income_view1,FALSE
410100,410100,Contributions - Oromia Health Bureau,account.data_account_type_income,other,4100,account.data_account_type_income,FALSE
410200,410200,Other Contributions - Oromia Health Bureau,account.data_account_type_income,other,4100,account.data_account_type_income,FALSE
410300,410300,Contributions - DwA CUAMM - Italy - Hospital,account.data_account_type_income,other,4100,account.data_account_type_income,FALSE
410400,410400,Contributions - DwA CUAMM - Italy - Public Health Pr.,account.data_account_type_income,other,4100,account.data_account_type_income,FALSE
410401,410401,Contributions - DwA CUAMM - Italy - College,account.data_account_type_income,other,4100,account.data_account_type_income,FALSE
410500,410500,Contributions - Catholic Local Organization,account.data_account_type_income,other,4100,account.data_account_type_income,FALSE
410600,410600,Contributions - Catholic Local Individuals,account.data_account_type_income,other,4100,account.data_account_type_income,FALSE
410700,410700,Contributions - Catholic Foreign Organization,account.data_account_type_income,other,4100,account.data_account_type_income,FALSE
410800,410800,Contributions - Catholic Foreign Individuals,account.data_account_type_income,other,4100,account.data_account_type_income,FALSE
410900,410900,Contributions - Ethiopian Individuals,account.data_account_type_income,other,4100,account.data_account_type_income,FALSE
411000,411000,Contributions - Foreign Individuals,account.data_account_type_income,other,4100,account.data_account_type_income,FALSE
411100,411100,Contributions - CBM / Hospital,account.data_account_type_income,other,4100,account.data_account_type_income,FALSE
411200,411200,Contributions - CBM / College,account.data_account_type_income,other,4100,account.data_account_type_income,FALSE
411300,411300,Contributions - Concern,account.data_account_type_income,other,4100,account.data_account_type_income,FALSE
411400,411400,Contributions - Embassy of Ireland,account.data_account_type_income,other,4100,account.data_account_type_income,FALSE
411500,411500,Contributions - WHI Switzerland / Hospital,account.data_account_type_income,other,4100,account.data_account_type_income,FALSE
411501,411501,Contributions - WHI Switzerland / Collegel,account.data_account_type_income,other,4100,account.data_account_type_income,FALSE
411600,411600,Contributions - USAID,account.data_account_type_income,other,4100,account.data_account_type_income,FALSE
411700,411700,Contributions - Carter Center (Ear Drop),account.data_account_type_income,other,4100,account.data_account_type_income,FALSE
411800,411800,Contributions - Mango Consultant,account.data_account_type_income,other,4100,account.data_account_type_income,FALSE
411900,411900,Contributions - Smile Train International,account.data_account_type_income,other,4100,account.data_account_type_income,FALSE
412000,412000,Contributions - Management Service for Health,account.data_account_type_income,other,4100,account.data_account_type_income,FALSE
412100,412100,Contributions - MIVA Netherland,account.data_account_type_income,other,4100,account.data_account_type_income,FALSE
412200,412200,Contribuitions -CIC - Children in Cross Fire - North Ireland - Hospital,account.data_account_type_income,other,4100,account.data_account_type_income,FALSE
412201,412201,Contribuitions -CIC - Children in Cross Fire - North Ireland - College,account.data_account_type_income,other,4100,account.data_account_type_income,FALSE
412300,412300,Contributions - Archdiocese of Chincinnati / USA,account.data_account_type_income,other,4100,account.data_account_type_income,FALSE
412400,412400,Contributions - Conrad N.Hilton Fund for Sisters,account.data_account_type_income,other,4100,account.data_account_type_income,FALSE
412500,412500,Contributions - Manos Unidas - Spain,account.data_account_type_income,other,4100,account.data_account_type_income,FALSE
412600,412600,Contributions - Stichting Adopteereen Wroeedvrouw - Netherland,account.data_account_type_income,other,4100,account.data_account_type_income,FALSE
412700,412700,Contributions - Medical Mission Sisters,account.data_account_type_income,other,4100,account.data_account_type_income,FALSE
412800,412800,Contributions - Society of Daughters of Mary Immaculate,account.data_account_type_income,other,4100,account.data_account_type_income,FALSE
412900,412900,Contributions - The Lay Dominican Community,account.data_account_type_income,other,4100,account.data_account_type_income,FALSE
413000,413000,Contributions - FMOL Franciscan Missionaries,account.data_account_type_income,other,4100,account.data_account_type_income,FALSE
413100,413100,Contributions - Ethiopian Catholic Secretariat,account.data_account_type_income,other,4100,account.data_account_type_income,FALSE
413200,413200,Contributions - ICAP,account.data_account_type_income,other,4100,account.data_account_type_income,FALSE
413300,413300,Contributions - ICRC,account.data_account_type_income,other,4100,account.data_account_type_income,FALSE
4200,4200,DONATIONS IN KIND (420100-429900),account.data_account_type_view,view,4,account.account_type_income_view1,FALSE
420100,420100,Donations in Kind - Oromia Health Bureau,account.data_account_type_income,other,4200,account.data_account_type_income,FALSE
420200,420200,Donations in Kind - DwA CUAMM,account.data_account_type_income,other,4200,account.data_account_type_income,FALSE
420300,420300,Donations in kind - Catholic Local Organization,account.data_account_type_income,other,4200,account.data_account_type_income,FALSE
420400,420400,Donations in kind - Catholic Local Individuals,account.data_account_type_income,other,4200,account.data_account_type_income,FALSE
420500,420500,Donations in Kind - Catholic Foreign Organization,account.data_account_type_income,other,4200,account.data_account_type_income,FALSE
420600,420600,Donations in Kind - Catholic Foreign Individuals,account.data_account_type_income,other,4200,account.data_account_type_income,FALSE
420700,420700,Donations in Kind - Ethiopian Individuals,account.data_account_type_income,other,4200,account.data_account_type_income,FALSE
420800,420800,Donations in Kind - Foreign Individuals,account.data_account_type_income,other,4200,account.data_account_type_income,FALSE
420900,420900,Donations in Kind - CBM Germany,account.data_account_type_income,other,4200,account.data_account_type_income,FALSE
421000,421000,Donations in kind - CBM Italy,account.data_account_type_income,other,4200,account.data_account_type_income,FALSE
421100,421100,Donations in Kind - Concern,account.data_account_type_income,other,4200,account.data_account_type_income,FALSE
421200,421200,Donations in Kind - Embassy of Ireland,account.data_account_type_income,other,4200,account.data_account_type_income,FALSE
421300,421300,Donations in Kind - WHI - Switzerland,account.data_account_type_income,other,4200,account.data_account_type_income,FALSE
421400,421400,Donations in Kind - USAID,account.data_account_type_income,other,4200,account.data_account_type_income,FALSE
421500,421500,Donations in Kind - Carter Center,account.data_account_type_income,other,4200,account.data_account_type_income,FALSE
421600,421600,Donations in Kind - ICRC,account.data_account_type_income,other,4200,account.data_account_type_income,FALSE
421700,421700,Donations in Kind - Smile Train International,account.data_account_type_income,other,4200,account.data_account_type_income,FALSE
421800,421800,Donations in Kind - Management Service for Health,account.data_account_type_expense,other,4200,account.data_account_type_income,FALSE
421900,421900,Donations in Kind - ICAP,account.data_account_type_expense,other,4200,account.data_account_type_income,FALSE
422000,422000,Donations in Kind - CIC - Children in Cross Fire / North Ireland,account.data_account_type_expense,other,4200,account.data_account_type_income,FALSE
422100,422100,Donations in Kind - Archdiocese of Chincinnati / USA,account.data_account_type_expense,other,4200,account.data_account_type_income,FALSE
422200,422200,Donations in Kind - Conrad N.Hilton Fund for Sisters,account.data_account_type_expense,other,4200,account.data_account_type_income,FALSE
422300,422300,Donations in Kind - Manos Unidas - Spain,account.data_account_type_expense,other,4200,account.data_account_type_income,FALSE
422400,422400,Donation in Kind - Stichting Adopteereen Wroeedvrouw - Netherland,account.data_account_type_expense,other,4200,account.data_account_type_income,FALSE
422500,422500,Donation in Kind - MMS Medical Mission Sisters,account.data_account_type_expense,other,4200,account.data_account_type_income,FALSE
422600,422600,Donation in kind - Society of Daughters of Mary Immaculate,account.data_account_type_expense,other,4200,account.data_account_type_income,FALSE
422700,422700,Donation in Kind - The Lay Dominican Community,account.data_account_type_expense,other,4200,account.data_account_type_income,FALSE
422800,422800,Donation in Kind - FMOL Franciscan Missionaries,account.data_account_type_expense,other,4200,account.data_account_type_income,FALSE
422900,422900,Donation in Kind - Ethiopian Catholic Secretariat,account.data_account_type_expense,other,4200,account.data_account_type_income,FALSE
423000,423000,Donation in Kind - PFSA,account.data_account_type_expense,other,4200,account.data_account_type_income,FALSE
423100,423100,Donations in kind for Foreign Staff,account.data_account_type_expense,other,4200,account.data_account_type_income,FALSE
423200,423200,Donations in kind for National Staff,account.data_account_type_expense,other,4200,account.data_account_type_income,FALSE
423300,423300,Donations in kind for External Consultancies,account.data_account_type_expense,other,4200,account.data_account_type_income,FALSE
423400,423400,Donations in kind for Capital Assets,account.data_account_type_expense,other,4200,account.data_account_type_income,FALSE
4300,4300,FINANCIAL INCOMES (430100-430199),account.data_account_type_view,view,4,account.account_type_income_view1,FALSE
430100,430100,Interest Income on Bank Accounts,account.data_account_type_expense,other,4300,account.data_account_type_income,FALSE
4400,4400,NON RECURRENT INCOMES (440100-449900),account.data_account_type_view,view,4,account.account_type_income_view1,FALSE
440100,440100,Gain from disposal of Capital Assets,account.data_account_type_expense,other,4400,account.data_account_type_income,FALSE
440200,440200,Amortization of Deferred Capital Contributions,account.data_account_type_expense,other,4400,account.data_account_type_income,FALSE
440300,440300,Release from Capital Assets Reserves,account.data_account_type_expense,other,4400,account.data_account_type_income,FALSE
5,5,EXPENSES (5100-6300),account.data_account_type_view,view,0,account.account_type_expense_view1,FALSE
5100,5100,PHARMACEUTICALS & MEDICAL SUPPLIES (510101-519900),account.data_account_type_view,view,5,account.account_type_expense_view1,FALSE
510101,510101,Opening Stock Balance - Medicines (Main Store/Pharmacy),account.data_account_type_expense,other,5100,account.data_account_type_expense,FALSE
510102,510102,Opening Stock Balance - Medical Supplies (Main Store/Pharmacy),account.data_account_type_expense,other,5100,account.data_account_type_expense,FALSE
510103,510103,Opening Stock Balance - Medicines (Sub Store),account.data_account_type_expense,other,5100,account.data_account_type_expense,FALSE
510104,510104,Opening Stock Balance - Medical Supplies (Sub Store),account.data_account_type_expense,other,5100,account.data_account_type_expense,FALSE
510105,510105,Operning Sock Balance - Medicines (Dispensing),account.data_account_type_expense,other,5100,account.data_account_type_expense,FALSE
510106,510106,Opening Stock Balance - Medical Supplies (Dispensing),account.data_account_type_expense,other,5100,account.data_account_type_expense,FALSE
510200,510200,Procurement of Medicines,account.data_account_type_expense,other,5100,account.data_account_type_expense,FALSE
510201,510201,Procurement of Medicines / ARV,account.data_account_type_expense,other,5100,account.data_account_type_expense,FALSE
510202,510202,Procurement of Medicines / Oxygen,account.data_account_type_expense,other,5100,account.data_account_type_expense,FALSE
510300,510300,Procurement of Medical Supplies,account.data_account_type_expense,other,5100,account.data_account_type_expense,FALSE
510301,510301,Procurement of Medical Supplies / Lab.Reagents,account.data_account_type_expense,other,5100,account.data_account_type_expense,FALSE
510400,510400,Transportation of Supplies - Hospital,account.data_account_type_expense,other,5100,account.data_account_type_expense,FALSE
510401,510401,Transportation of Supplies - College,account.data_account_type_expense,other,5100,account.data_account_type_expense,FALSE
510500,510500,Expenses in kind for Medicines and Medical Supplies Hospital,account.data_account_type_expense,other,5100,account.data_account_type_expense,FALSE
510501,510501,Expenses in kind for Medicines and Medical Supplies College,account.data_account_type_expense,other,5100,account.data_account_type_expense,FALSE
510600,510600,(Closing Stock Balance - Medicines ),account.data_account_type_expense,other,5100,account.data_account_type_expense,FALSE
510601,510601,(Closing Stock Balance - Medical Supplies),account.data_account_type_expense,other,5100,account.data_account_type_expense,FALSE
5200,5200,GENERAL SUPPLIES (520100-529900),account.data_account_type_view,view,5,account.account_type_expense_view1,FALSE
520100,520100,Opening Stock Balance - Office Supplice Hospital,account.data_account_type_expense,other,5200,account.data_account_type_expense,FALSE
520101,520101,Opening Stock Balance - Office Supplies College,account.data_account_type_expense,other,5200,account.data_account_type_expense,FALSE
520200,520200,Opening Stock Balance - Food Hospital,account.data_account_type_expense,other,5200,account.data_account_type_expense,FALSE
520201,520201,Opening Stock Balance - Food College Hostel,account.data_account_type_expense,other,5200,account.data_account_type_expense,FALSE
520300,520300,Procurement of Food Hospital,account.data_account_type_expense,other,5200,account.data_account_type_expense,FALSE
520301,520301,Procurement of Food College Hostel,account.data_account_type_expense,other,5200,account.data_account_type_expense,FALSE
520400,520400,Procurement of Office Supplies Hospital,account.data_account_type_expense,other,5200,account.data_account_type_expense,FALSE
520401,520401,Procurement of Office Supples College,account.data_account_type_expense,other,5200,account.data_account_type_expense,FALSE
520500,520500,Procurement of Cleaning and Laundry Supplies Hospital,account.data_account_type_expense,other,5200,account.data_account_type_expense,FALSE
520501,520501,Procurement of Cleaning and Laundry Supplies College,account.data_account_type_expense,other,5200,account.data_account_type_expense,FALSE
520600,520600,(Closing Stock Balance - Office Supplies Hospital),account.data_account_type_expense,other,5200,account.data_account_type_expense,FALSE
520601,520601,(Closing Stock Balance - Office Supplies College),account.data_account_type_expense,other,5200,account.data_account_type_expense,FALSE
520700,520700,(Closing Stock Balance - Food for Hospital),account.data_account_type_expense,other,5200,account.data_account_type_expense,FALSE
520701,520701,(Closing Stock Balance - Food for College),account.data_account_type_expense,other,5200,account.data_account_type_expense,FALSE
5300,5300,WORK SHOP SUPPLIES (530100-539900),account.data_account_type_view,view,5,account.account_type_expense_view1,FALSE
530100,530100,Opening Stock Balance - Building Supplies Hospital,account.data_account_type_expense,other,5300,account.data_account_type_expense,FALSE
530101,530101,Opening Stock Balance - Building Supplies College,account.data_account_type_expense,other,5300,account.data_account_type_expense,FALSE
530200,530200,Opening Stock Balance - Electrical Supplies Hospital,account.data_account_type_expense,other,5300,account.data_account_type_expense,FALSE
530201,530201,Opening Stock Balance - Electrical Supplies College,account.data_account_type_expense,other,5300,account.data_account_type_expense,FALSE
530300,530300,Opening Stock Balance - Spare Parts Hospital,account.data_account_type_expense,other,5300,account.data_account_type_expense,FALSE
530301,530301,Opening Stock Balance - Spare Parts College,account.data_account_type_expense,other,5300,account.data_account_type_expense,FALSE
530400,530400,"Opeining Stock Balance - General Supplies (Bed sheets, blanckets, etc) Hospital",account.data_account_type_expense,other,5300,account.data_account_type_expense,FALSE
530401,530401,"Opeining Stock Balance - General Supplies (Bed sheets, blanckets, etc) College",account.data_account_type_expense,other,5300,account.data_account_type_expense,FALSE
530500,530500,Procurement of Building Supplies Hospital,account.data_account_type_expense,other,5300,account.data_account_type_expense,FALSE
530501,530501,Procurement of Building Supplies College,account.data_account_type_expense,other,5300,account.data_account_type_expense,FALSE
530600,530600,Procurement of Electrical Supplies Hospital,account.data_account_type_expense,other,5300,account.data_account_type_expense,FALSE
530601,530601,Procurement of Electrical Supplies College,account.data_account_type_expense,other,5300,account.data_account_type_expense,FALSE
530700,530700,Procurement of Spare Parts Supplies Hospital,account.data_account_type_expense,other,5300,account.data_account_type_expense,FALSE
530701,530701,Procurement of Spare Parts Supplies College,account.data_account_type_expense,other,5300,account.data_account_type_expense,FALSE
530800,530800,"Procur. of General Supplies Hospital (Bed sheets, blanckets, etc) Hospital",account.data_account_type_expense,other,5300,account.data_account_type_expense,FALSE
530900,530900,"Procur. of General Supplies Hospital (Bed sheets, blanckets, etc) College",account.data_account_type_expense,other,5300,account.data_account_type_expense,FALSE
531000,531000,(Closing Stock Balance - Building Supplies Hospital),account.data_account_type_expense,other,5300,account.data_account_type_expense,FALSE
531001,531001,(Closing Stock Balance - Building Supplies College),account.data_account_type_expense,other,5300,account.data_account_type_expense,FALSE
531100,531100,(Closing Stock Balance - Electrical Supplie Hospital),account.data_account_type_expense,other,5300,account.data_account_type_expense,FALSE
531101,531101,(Closing Stock Balance - Electrical Supplie College),account.data_account_type_expense,other,5300,account.data_account_type_expense,FALSE
531200,531200,(Closing Stock Balance - Spare Parts Hospital),account.data_account_type_expense,other,5300,account.data_account_type_expense,FALSE
531201,531201,(Closing Stock Balance - Spare Parts College),account.data_account_type_expense,other,5300,account.data_account_type_expense,FALSE
531300,531300,"(Closing Stock Balance - General Supplies Hospital: bed sheets, etc.) Hospital",account.data_account_type_expense,other,5300,account.data_account_type_expense,FALSE
531301,531301,"(Closing Stock Balance - General Supplies Hospital: bed sheet, etc.) College",account.data_account_type_expense,other,5300,account.data_account_type_expense,FALSE
5400,5400,PERSONNEL COSTS (540100-549900),account.data_account_type_view,view,5,account.account_type_expense_view1,FALSE
540100,540100,Basic Salaries Hospital,account.data_account_type_expense,other,5400,account.data_account_type_expense,FALSE
540101,540101,Basic Salaries College,account.data_account_type_expense,other,5400,account.data_account_type_expense,FALSE
540200,540200,Overtime Hospital (Gap filling),account.data_account_type_expense,other,5400,account.data_account_type_expense,FALSE
540201,540201,Overtime College (Gap filling),account.data_account_type_expense,other,5400,account.data_account_type_expense,FALSE
540300,540300,Extra Duty Allowance Hospital (Position Allowance),account.data_account_type_expense,other,5400,account.data_account_type_expense,FALSE
540301,540301,Extra Duty Allowance College (Position Allowance),account.data_account_type_expense,other,5400,account.data_account_type_expense,FALSE
540302,540302,Extra Duty Allowance Hospital (Top Up Allowance),account.data_account_type_expense,other,5400,account.data_account_type_expense,FALSE
540303,540303,Extra Duty Allowance College (Top Up Allowance),account.data_account_type_expense,other,5400,account.data_account_type_expense,FALSE
540400,540400,Provident Fund / Employer Contribution Hospital (10%),account.data_account_type_expense,other,5400,account.data_account_type_expense,FALSE
540401,540401,Provident Fund / Employer Contribution College (10%),account.data_account_type_expense,other,5400,account.data_account_type_expense,FALSE
540500,540500,Pension Fund / Employer Contribution Hospital (11%),account.data_account_type_expense,other,5400,account.data_account_type_expense,FALSE
540501,540501,Pension Fund / Employer Contribution College (11%),account.data_account_type_expense,other,5400,account.data_account_type_expense,FALSE
540600,540600,Service Allowance (Fidelity) Hospital,account.data_account_type_expense,other,5400,account.data_account_type_expense,FALSE
540601,540601,Service Allowance (Fidelity) Allowance College,account.data_account_type_expense,other,5400,account.data_account_type_expense,FALSE
540602,540602,Severance Allowance Hospital,account.data_account_type_expense,other,5400,account.data_account_type_expense,FALSE
540603,540603,Severance Allowance College,account.data_account_type_expense,other,5400,account.data_account_type_expense,FALSE
540700,540700,Night and W/End Allowances Hospital,account.data_account_type_expense,other,5400,account.data_account_type_expense,FALSE
540800,540800,Risk Allowance Hospital,account.data_account_type_expense,other,5400,account.data_account_type_expense,FALSE
540900,540900,Medical Care - Hospital Staff,account.data_account_type_expense,other,5400,account.data_account_type_expense,FALSE
540901,540901,Medical Care - College Staff,account.data_account_type_expense,other,5400,account.data_account_type_expense,FALSE
541000,541000,Uniforms Hospital,account.data_account_type_expense,other,5400,account.data_account_type_expense,FALSE
541001,541001,Uniforms College (Staff and Students),account.data_account_type_expense,other,5400,account.data_account_type_expense,FALSE
541100,541100,Food consumption Hospital,account.data_account_type_expense,other,5400,account.data_account_type_expense,FALSE
541101,541101,Food consumption College,account.data_account_type_expense,other,5400,account.data_account_type_expense,FALSE
541200,541200,Pocket money College,account.data_account_type_expense,other,5400,account.data_account_type_expense,FALSE
541300,541300,Travel & Per diem Hospital,account.data_account_type_expense,other,5400,account.data_account_type_expense,FALSE
541301,541301,Travel & Per diem College,account.data_account_type_expense,other,5400,account.data_account_type_expense,FALSE
541400,541400,Training and Upgrading Hospital,account.data_account_type_expense,other,5400,account.data_account_type_expense,FALSE
541401,541401,Training and Upgrading College,account.data_account_type_expense,other,5400,account.data_account_type_expense,FALSE
541500,541500,Work Permit and related Hospital,account.data_account_type_expense,other,5400,account.data_account_type_expense,FALSE
541501,541501,Work Permit and related College,account.data_account_type_expense,other,5400,account.data_account_type_expense,FALSE
541600,541600,Expenses in Kind for National Staff Hospital,account.data_account_type_expense,other,5400,account.data_account_type_expense,FALSE
541601,541601,Expenses in Kind for National Staff College,account.data_account_type_expense,other,5400,account.data_account_type_expense,FALSE
541602,541602,Expenses in Kind for Foreign Staff Hospital,account.data_account_type_expense,other,5400,account.data_account_type_expense,FALSE
541603,541603,Expenses in Kind for Foreign Staff College,account.data_account_type_expense,other,5400,account.data_account_type_expense,FALSE
5500,5500,UTILITIES COSTS (550100 - 559900),account.data_account_type_view,view,5,account.account_type_expense_view1,FALSE
550100,550100,Opening Balance - Fuel for Generator,account.data_account_type_expense,other,5500,account.data_account_type_expense,FALSE
550101,550101,Fuel for Generator Hospital,account.data_account_type_expense,other,5500,account.data_account_type_expense,FALSE
550102,550102,Fuel for Generator College,account.data_account_type_expense,other,5500,account.data_account_type_expense,FALSE
550200,550200,Electricity expenses Hospital,account.data_account_type_expense,other,5500,account.data_account_type_expense,FALSE
550201,550201,Electricity expenses College,account.data_account_type_expense,other,5500,account.data_account_type_expense,FALSE
550300,550300,Water expenses Hospital,account.data_account_type_expense,other,5500,account.data_account_type_expense,FALSE
550301,550301,Water expenses College,account.data_account_type_expense,other,5500,account.data_account_type_expense,FALSE
550400,550400,LPG Gas,account.data_account_type_expense,other,5500,account.data_account_type_expense,FALSE
550500,550500,(Closing Balance - Fuel for Generator),account.data_account_type_expense,other,5500,account.data_account_type_expense,FALSE
5600,5600,COMMUNICATION COSTS (560100-569900),account.data_account_type_view,view,5,account.account_type_expense_view1,FALSE
560100,560100,Telephone expenses / Land Line - Hospital,account.data_account_type_expense,other,5600,account.data_account_type_expense,FALSE
560101,560101,Telephone expenses / Land Line - College,account.data_account_type_expense,other,5600,account.data_account_type_expense,FALSE
560200,560200,Mobile Expenses - Hospital (Management Operation Manager),account.data_account_type_expense,other,5600,account.data_account_type_expense,FALSE
560300,560300,Internet expenses - Hospital,account.data_account_type_expense,other,5600,account.data_account_type_expense,FALSE
560301,560301,Internet expenses - College,account.data_account_type_expense,other,5600,account.data_account_type_expense,FALSE
560400,560400,Fax expenses - Hospital,account.data_account_type_expense,other,5600,account.data_account_type_expense,FALSE
560401,560401,Fax expenses - College,account.data_account_type_expense,other,5600,account.data_account_type_expense,FALSE
5700,5700,VEHICLES and MOTORCYCLES COSTS (570100-579900),account.data_account_type_view,view,5,account.account_type_expense_view1,FALSE
570100,570100,Fuel - Petrol,account.data_account_type_expense,other,5700,account.data_account_type_expense,FALSE
570200,570200,Fuel - Diesel Hospital,account.data_account_type_expense,other,5700,account.data_account_type_expense,FALSE
570201,570201,Fuel - Diesel College,account.data_account_type_expense,other,5700,account.data_account_type_expense,FALSE
570300,570300,Taxes & Fees - Vehicles & Motorcycles Hospital,account.data_account_type_expense,other,5700,account.data_account_type_expense,FALSE
570301,570301,Taxes & Fees - Vehicles & Motorcycles College,account.data_account_type_expense,other,5700,account.data_account_type_expense,FALSE
570400,570400,Repairs and Maint. Vehicles/Motorcycles Hospital,account.data_account_type_expense,other,5700,account.data_account_type_expense,FALSE
570401,570401,Repairs and Maint. Vehicles/Motorcycles College,account.data_account_type_expense,other,5700,account.data_account_type_expense,FALSE
570500,570500,Insurance Premiums - Vehicles & Motorcycles Hospital,account.data_account_type_expense,other,5700,account.data_account_type_expense,FALSE
570501,570501,Insurance Premiums - Vehicles & Motorcycles College,account.data_account_type_expense,other,5700,account.data_account_type_expense,FALSE
570600,570600,Other Costs - Vehicles and Motorcycles Hospital,account.data_account_type_expense,other,5700,account.data_account_type_expense,FALSE
570601,570601,Other Costs - Vehicles and Motorcycles College,account.data_account_type_expense,other,5700,account.data_account_type_expense,FALSE
5800,5800,MAINTENANCE & REPAIRS (580100-589900),account.data_account_type_view,view,5,account.account_type_expense_view1,FALSE
580100,580100,Maintenance & Repairs - Building Hospital,account.data_account_type_expense,other,5800,account.data_account_type_expense,FALSE
580101,580101,Maintenance & Repairs - Building College,account.data_account_type_expense,other,5800,account.data_account_type_expense,FALSE
580200,580200,Maintenance & Repairs - Medical Equip. Hospital,account.data_account_type_expense,other,5800,account.data_account_type_expense,FALSE
580300,580300,Maintenance & Repairs - Equipment Hospital,account.data_account_type_expense,other,5800,account.data_account_type_expense,FALSE
580301,580301,Maintenance & Repairs - Equipment College,account.data_account_type_expense,other,5800,account.data_account_type_expense,FALSE
580400,580400,Maintenance & Repairs - Furniture Hospital,account.data_account_type_expense,other,5800,account.data_account_type_expense,FALSE
580401,580401,Maintenance & Repairs - Furniture College,account.data_account_type_expense,other,5800,account.data_account_type_expense,FALSE
580500,580500,Maintenance & Repairs - IT Systems / Equipment Hospital,account.data_account_type_expense,other,5800,account.data_account_type_expense,FALSE
580501,580501,Maintenance & Repairs - IT Systems / Equipment College,account.data_account_type_expense,other,5800,account.data_account_type_expense,FALSE
580600,580600,Maintenance & Repairs - Residential Equipment,account.data_account_type_expense,other,5800,account.data_account_type_expense,FALSE
580601,580601,Maintenance & Repairs - Residential Furniture,account.data_account_type_expense,other,5800,account.data_account_type_expense,FALSE
5900,5900,GENERAL & ADMINISTRATION COSTS (590100-599900),account.data_account_type_view,view,5,account.account_type_expense_view1,FALSE
590100,590100,Audit Fees Hospital,account.data_account_type_expense,other,5900,account.data_account_type_expense,FALSE
590101,590101,Audit Fees College,account.data_account_type_expense,other,5900,account.data_account_type_expense,FALSE
590200,590200,Accountancy Fees,account.data_account_type_expense,other,5900,account.data_account_type_expense,FALSE
590300,590300,Legal Fees,account.data_account_type_expense,other,5900,account.data_account_type_expense,FALSE
590400,590400,Other External Consultancy Fees,account.data_account_type_expense,other,5900,account.data_account_type_expense,FALSE
590500,590500,Monitoring and Evaluation,account.data_account_type_expense,other,5900,account.data_account_type_expense,FALSE
590600,590600,Insurance expenses Hospital,account.data_account_type_expense,other,5900,account.data_account_type_expense,FALSE
590601,590601,Insurance expenses College,account.data_account_type_expense,other,5900,account.data_account_type_expense,FALSE
590700,590700,Gifts and Donations Hospital,account.data_account_type_expense,other,5900,account.data_account_type_expense,FALSE
590701,590701,Gifts and Donations College,account.data_account_type_expense,other,5900,account.data_account_type_expense,FALSE
590800,590800,Entertainment & Hospitality Hospital,account.data_account_type_expense,other,5900,account.data_account_type_expense,FALSE
590801,590801,Entertainment & Hospitality College,account.data_account_type_expense,other,5900,account.data_account_type_expense,FALSE
590900,590900,Graduations expenses College,account.data_account_type_expense,other,5900,account.data_account_type_expense,FALSE
591000,591000,Pictures and Films College,account.data_account_type_expense,other,5900,account.data_account_type_expense,FALSE
591100,591100,Board Expenses: Seminars & Workshops,account.data_account_type_expense,other,5900,account.data_account_type_expense,FALSE
591200,591200,Miscellaneous expenses Hospital,account.data_account_type_expense,other,5900,account.data_account_type_expense,FALSE
591201,591201,Miscellaneous expenses College,account.data_account_type_expense,other,5900,account.data_account_type_expense,FALSE
591300,591300,Bank Charges Hospital,account.data_account_type_expense,other,5900,account.data_account_type_expense,FALSE
591301,591301,Bank Charges College,account.data_account_type_expense,other,5900,account.data_account_type_expense,FALSE
591400,591400,Other General and Administration Costs,account.data_account_type_expense,other,5900,account.data_account_type_expense,FALSE
591500,591500,Loading - Unloading Expenses Hospital,account.data_account_type_expense,other,5900,account.data_account_type_expense,FALSE
591501,591501,Loading - Unloading Expenses College,account.data_account_type_expense,other,5900,account.data_account_type_expense,FALSE
591600,591600,Expenses in Kind for External Consultancies,account.data_account_type_expense,other,5900,account.data_account_type_expense,FALSE
591700,591700,Exempted Expenses to Third Parties (outsiders),account.data_account_type_expense,other,5900,account.data_account_type_expense,FALSE
591800,591800,Exempted Expenses to Hospital Staff,account.data_account_type_expense,other,5900,account.data_account_type_expense,FALSE
591900,591900,Exempted Expenses to College Staff,account.data_account_type_expense,other,5900,account.data_account_type_expense,FALSE
6000,6000,TAXES/LEVIES/LICENSES (600100-609900),account.data_account_type_view,view,5,account.account_type_expense_view1,FALSE
600100,600100,Regional Taxes (Oromya),account.data_account_type_expense,other,6000,account.data_account_type_expense,FALSE
600200,600200,Governmental Taxes,account.data_account_type_expense,other,6000,account.data_account_type_expense,FALSE
600300,600300,Taxes and Licences - Hospital,account.data_account_type_expense,other,6000,account.data_account_type_expense,FALSE
600301,600301,Taxes and Licences - College,account.data_account_type_expense,other,6000,account.data_account_type_expense,FALSE
6100,6100,LOSSES & WRITE OFFS (610100-619900),account.data_account_type_view,view,5,account.account_type_expense_view1,FALSE
610100,610100,Provision of Bad Debts,account.data_account_type_expense,other,6100,account.data_account_type_expense,FALSE
610200,610200,Write Off of Accounts Receivables,account.data_account_type_expense,other,6100,account.data_account_type_expense,FALSE
610300,610300,Write Off of obsolete inventory (Medicines and Medical Supplies),account.data_account_type_expense,other,6100,account.data_account_type_expense,FALSE
610400,610400,Cash differences Hospital (+/-),account.data_account_type_expense,other,6100,account.data_account_type_expense,FALSE
610401,610401,Cash differences College (+/-),account.data_account_type_expense,other,6100,account.data_account_type_expense,FALSE
6200,6200,PROJECTS REALIZATION COSTS (620100-629900),account.data_account_type_view,view,5,account.account_type_expense_view1,FALSE
620100,620100,CBM Italy - Project Eye Unit,account.data_account_type_expense,other,6200,account.data_account_type_expense,FALSE
620101,620101,CBM Project Eye Unit Perdiem,account.data_account_type_expense,other,6200,account.data_account_type_expense,FALSE
620102,620102,CBM Project Eye Unit - Budget Line..,account.data_account_type_expense,other,6200,account.data_account_type_expense,FALSE
620199,620199,CBM Project Eye Unit - Budget Line..,account.data_account_type_expense,other,6200,account.data_account_type_expense,FALSE
620200,620200,Water Spring Project,account.data_account_type_expense,other,6200,account.data_account_type_expense,FALSE
620300,620300,Oromya Health Bureau Project,account.data_account_type_expense,other,6200,account.data_account_type_expense,FALSE
620301,620301,Clinical System Mentorship,account.data_account_type_expense,other,6200,account.data_account_type_expense,FALSE
620302,620302,Catchment Area Meeting CDC,account.data_account_type_expense,other,6200,account.data_account_type_expense,FALSE
620303,620303,Duty Exemption CDC,account.data_account_type_expense,other,6200,account.data_account_type_expense,FALSE
620304,620304,Specimen Referral Linkage (CD4) CDC,account.data_account_type_expense,other,6200,account.data_account_type_expense,FALSE
620305,620305,Data Clerk Salary CDC,account.data_account_type_expense,other,6200,account.data_account_type_expense,FALSE
620400,620400,OTHER PROJECT COST,account.data_account_type_expense,other,6200,account.data_account_type_expense,FALSE
620401,620401,Water project cost Mikael Had,account.data_account_type_expense,other,6200,account.data_account_type_expense,FALSE
620402,620402,Water project -Belay Taddese,account.data_account_type_expense,other,6200,account.data_account_type_expense,FALSE
620403,620403,Water project-Endale Tachebele,account.data_account_type_expense,other,6200,account.data_account_type_expense,FALSE
620500,620500,WHI Project,account.data_account_type_expense,other,6200,account.data_account_type_expense,FALSE
620600,620600,Children in Crossfire - Project,account.data_account_type_expense,other,6200,account.data_account_type_expense,FALSE
620700,620700,Other Projects Realization Costs .......,account.data_account_type_expense,other,6200,account.data_account_type_expense,FALSE
6300,6300,DEPRECIATIONS & AMORTIZATIONS (630100-639900),account.data_account_type_view,view,5,account.account_type_expense_view1,FALSE
630100,630100,Depreciation on Hospital Buildings and Fixture,account.data_account_type_expense,other,6300,account.data_account_type_expense,FALSE
630101,630101,Depreciation on College Buildings and Fixture - College,account.data_account_type_expense,other,6300,account.data_account_type_expense,FALSE
630200,630200,Depreciation on Hospital Furniture,account.data_account_type_expense,other,6300,account.data_account_type_expense,FALSE
630201,630201,Depreciation on College Furniture,account.data_account_type_expense,other,6300,account.data_account_type_expense,FALSE
630300,630300,Depreciation on Hospital Equipment,account.data_account_type_expense,other,6300,account.data_account_type_expense,FALSE
630301,630301,Depreciation on College Equipment,account.data_account_type_expense,other,6300,account.data_account_type_expense,FALSE
630400,630400,Depreciation on IT System / Equipment Hospital,account.data_account_type_expense,other,6300,account.data_account_type_expense,FALSE
630401,630401,Depreciation on IT System / Equipment College,account.data_account_type_expense,other,6300,account.data_account_type_expense,FALSE
630500,630500,Depreciation on Residential Furniture,account.data_account_type_expense,other,6300,account.data_account_type_expense,FALSE
630501,630501,Depreciation on Residential Equipment,account.data_account_type_expense,other,6300,account.data_account_type_expense,FALSE
630600,630600,Depreciation on Motor Vehicles / Motor Cycles,account.data_account_type_expense,other,6300,account.data_account_type_expense,FALSE
630601,630601,Depreciation on Hospital Medical Equpment,account.data_account_type_expense,other,6300,account.data_account_type_expense,FALSE
630700,630700,Depreciation on Hospital Other Assets (Low Value),account.data_account_type_expense,other,6300,account.data_account_type_expense,FALSE
630701,630701,Depreciation on College Other Assets (Low Value),account.data_account_type_expense,other,6300,account.data_account_type_expense,FALSE
