"id","children_ids/id","account_ids/id","style_overwrite","parent_id/id","name","name_total","sequence","sign","type"
"isf_monthly_key_data_report_1","","isf_wolisso_data.400100,isf_wolisso_data.400200,isf_wolisso_data.400300,isf_wolisso_data.400400,isf_wolisso_data.400500,isf_wolisso_data.400501,isf_wolisso_data.400600","","","Patients Fees","Patients Fees Total","1","Reverse balance sign","Cash In Flow"
"isf_monthly_key_data_report_2","","isf_wolisso_data.400700,isf_wolisso_data.400800,isf_wolisso_data.400900,isf_wolisso_data.401000,isf_wolisso_data.401100,isf_wolisso_data.401200,isf_wolisso_data.401300,isf_wolisso_data.401400,isf_wolisso_data.430100,isf_wolisso_data.440100","","","Other Operating Incomes","Other Operating Incomes Total","2","Reverse balance sign","Cash In Flow"
"isf_monthly_key_data_report_3","","isf_wolisso_data.410100","","","Oromia Grant","Oromia Grant","3","Reverse balance sign","Cash In Flow"
"isf_monthly_key_data_report_4","","__export__.account_account_589","","","St Luke Fund","St Luke Fund","4","Reverse balance sign","Cash In Flow"
"isf_monthly_key_data_report_5","","isf_wolisso_data.410300,__export__.account_account_529,__export__.account_account_530,__export__.account_account_536,isf_wolisso_data.410401,__export__.account_account_524,__export__.account_account_525","","","DWA CUAMM budget support","DWA CUAMM budget support Total","5","Reverse balance sign","Cash In Flow"
"isf_monthly_key_data_report_6","","isf_wolisso_data.410500,__export__.account_account_644,isf_wolisso_data.410600,__export__.account_account_645,isf_wolisso_data.410700,isf_wolisso_data.410800,isf_wolisso_data.410900,__export__.account_account_648,isf_wolisso_data.411000,__export__.account_account_537,isf_wolisso_data.411100,isf_wolisso_data.411200,isf_wolisso_data.411300,isf_wolisso_data.411400,isf_wolisso_data.411500,isf_wolisso_data.411501,isf_wolisso_data.411600,isf_wolisso_data.411700,isf_wolisso_data.411800,isf_wolisso_data.411900,__export__.account_account_606,isf_wolisso_data.412100,__export__.account_account_548,__export__.account_account_608,isf_wolisso_data.412200,isf_wolisso_data.412201,isf_wolisso_data.412300,isf_wolisso_data.412400,isf_wolisso_data.412500,isf_wolisso_data.412600,isf_wolisso_data.412700,__export__.account_account_613,isf_wolisso_data.412800,isf_wolisso_data.412900,isf_wolisso_data.413000,isf_wolisso_data.413100,__export__.account_account_614,isf_wolisso_data.413200,isf_wolisso_data.413300,__export__.account_account_700","","","Other Donors Budget Support","Other Donors Budget Support Total","6","Reverse balance sign","Cash In Flow"
"isf_monthly_key_data_report_7","","isf_wolisso_data.410200,__export__.account_account_646,__export__.account_account_647,__export__.account_account_649,__export__.account_account_600,__export__.account_account_601,__export__.account_account_602,__export__.account_account_598,__export__.account_account_599,__export__.account_account_603,__export__.account_account_604,__export__.account_account_605,__export__.account_account_609,__export__.account_account_610,__export__.account_account_611,__export__.account_account_612","","","Other Donors Projects","Other Donors Projects Total","7","Reverse balance sign","Cash In Flow"
"isf_monthly_key_data_report_8","","isf_wolisso_data.420200","","","DWA CUAMM Drugs & Consumables, others IN KIND","DWA CUAMM Drugs & Consumables, others IN KIND Total","8","Reverse balance sign","Cash In Flow"
"isf_monthly_key_data_report_9","","__export__.account_account_496,__export__.account_account_505,__export__.account_account_506","","","DWA CUAMM Expatriate/Nationals Staff IN KIND","DWA CUAMM Expatriate/Nationals Staff IN KIND Total","9","Reverse balance sign","Cash In Flow"
"isf_monthly_key_data_report_10","","__export__.account_account_570","","","Other Expatriate Staff IN KIND","Other Expatriate Staff IN KIND Total","10","Reverse balance sign","Cash In Flow"
"isf_monthly_key_data_report_11","","isf_wolisso_data.420100,isf_wolisso_data.420300,isf_wolisso_data.420400,isf_wolisso_data.420500,isf_wolisso_data.420600,isf_wolisso_data.420700,isf_wolisso_data.420800,isf_wolisso_data.420900,isf_wolisso_data.421000,isf_wolisso_data.421100,isf_wolisso_data.421200,isf_wolisso_data.421300,isf_wolisso_data.421400,isf_wolisso_data.421500,isf_wolisso_data.421600,isf_wolisso_data.421700,isf_wolisso_data.421800,isf_wolisso_data.421900,isf_wolisso_data.422000,isf_wolisso_data.422100,isf_wolisso_data.422200,isf_wolisso_data.422300,isf_wolisso_data.422400,isf_wolisso_data.422500,isf_wolisso_data.422600,isf_wolisso_data.422700,isf_wolisso_data.422800,isf_wolisso_data.422900,isf_wolisso_data.423000,isf_wolisso_data.423100,isf_wolisso_data.423200,isf_wolisso_data.423300,isf_wolisso_data.423400,__export__.account_account_526","","","Other Donors Drugs Consumables IN KIND","Other Donors Drugs Consumables IN KIND Total","11","Reverse balance sign","Cash In Flow"
"isf_monthly_key_data_report_12","","isf_wolisso_data.540100,isf_wolisso_data.540101,__export__.account_account_480,isf_wolisso_data.540200,isf_wolisso_data.540201,isf_wolisso_data.540300,isf_wolisso_data.540301,isf_wolisso_data.540302,isf_wolisso_data.540303,isf_wolisso_data.540400,isf_wolisso_data.540401,isf_wolisso_data.540500,isf_wolisso_data.540501,isf_wolisso_data.540600,isf_wolisso_data.540601,isf_wolisso_data.540602,isf_wolisso_data.540603,isf_wolisso_data.540700,isf_wolisso_data.540800,isf_wolisso_data.540900,isf_wolisso_data.540901,isf_wolisso_data.541000,isf_wolisso_data.541001,isf_wolisso_data.541100,isf_wolisso_data.541101,isf_wolisso_data.541200,__export__.account_account_556,isf_wolisso_data.541300,isf_wolisso_data.541301,isf_wolisso_data.541400,isf_wolisso_data.541401,isf_wolisso_data.541500,isf_wolisso_data.541501,__export__.account_account_523,__export__.account_account_555,__export__.account_account_615,__export__.account_account_670","","","Personnel costs","Personnel costs","1","Preserve balance sign","Cash Out Flow"
"isf_monthly_key_data_report_13","","isf_wolisso_data.541600,isf_wolisso_data.541601,isf_wolisso_data.541602,isf_wolisso_data.541603","","","Personnel costs IN KIND","Personnel costs IN KIND","2","Preserve balance sign","Cash Out Flow"
"isf_monthly_key_data_report_14","","isf_wolisso_data.510101,isf_wolisso_data.510102,isf_wolisso_data.510103,isf_wolisso_data.510104,isf_wolisso_data.510105,isf_wolisso_data.510106,isf_wolisso_data.510200,isf_wolisso_data.510201,isf_wolisso_data.510202,isf_wolisso_data.510300,isf_wolisso_data.510301,__export__.account_account_554,isf_wolisso_data.510400,isf_wolisso_data.510401,isf_wolisso_data.510600,isf_wolisso_data.510601","","","Pharmaceutical & Medical supplies","Pharmaceutical & Medical supplies","3","Preserve balance sign","Cash Out Flow"
"isf_monthly_key_data_report_15","","isf_wolisso_data.510500,isf_wolisso_data.510501","","","Pharmaceutical & Medical supplies IN KIND","Pharmaceutical & Medical supplies IN KIND","4","Preserve balance sign","Cash Out Flow"
"isf_monthly_key_data_report_16","","__export__.account_account_594,isf_wolisso_data.530800,isf_wolisso_data.530900,__export__.account_account_591","","","Other goods in kind (Workshop, General Supplies, etc)","Other goods in kind (Workshop, General Supplies, etc) Total","5","Preserve balance sign","Cash Out Flow"
"isf_monthly_key_data_report_17","","isf_wolisso_data.520100,isf_wolisso_data.520101,isf_wolisso_data.520200,isf_wolisso_data.520201,isf_wolisso_data.520300,isf_wolisso_data.520301,__export__.account_account_564,isf_wolisso_data.520400,isf_wolisso_data.520401,isf_wolisso_data.520500,isf_wolisso_data.520501,__export__.account_account_592,__export__.account_account_593,isf_wolisso_data.520600,isf_wolisso_data.520601,isf_wolisso_data.520700,isf_wolisso_data.520701,__export__.account_account_719,__export__.account_account_720,__export__.account_account_721,__export__.account_account_722","","","General Supplies","General Supplies Total","6","Preserve balance sign","Cash Out Flow"
"isf_monthly_key_data_report_18","","isf_wolisso_data.530100,isf_wolisso_data.530101,isf_wolisso_data.530200,isf_wolisso_data.530201,isf_wolisso_data.530300,isf_wolisso_data.530301,isf_wolisso_data.530400,isf_wolisso_data.530401,isf_wolisso_data.530500,isf_wolisso_data.530501,isf_wolisso_data.530600,isf_wolisso_data.530601,isf_wolisso_data.530700,isf_wolisso_data.530701,isf_wolisso_data.531000,isf_wolisso_data.531001,isf_wolisso_data.531100,isf_wolisso_data.531101,isf_wolisso_data.531200,isf_wolisso_data.531201,isf_wolisso_data.531300,isf_wolisso_data.531301","","","Workshop supplies","Workshop supplies Total","7","Preserve balance sign","Cash Out Flow"
"isf_monthly_key_data_report_19","","isf_wolisso_data.550100,isf_wolisso_data.550101,isf_wolisso_data.550102,isf_wolisso_data.550200,isf_wolisso_data.550201,isf_wolisso_data.550300,isf_wolisso_data.550301,isf_wolisso_data.550400,isf_wolisso_data.550500","","","Utilities","Utilities Total","8","Preserve balance sign","Cash Out Flow"
"isf_monthly_key_data_report_20","","isf_wolisso_data.560100,isf_wolisso_data.560101,isf_wolisso_data.560200,isf_wolisso_data.560300,isf_wolisso_data.560301,isf_wolisso_data.560400,isf_wolisso_data.560401,__export__.account_account_557","","","Communication","Communication Total","9","Preserve balance sign","Cash Out Flow"
"isf_monthly_key_data_report_21","","isf_wolisso_data.570100,isf_wolisso_data.570200,isf_wolisso_data.570201,isf_wolisso_data.570300,isf_wolisso_data.570301,isf_wolisso_data.570400,isf_wolisso_data.570401,isf_wolisso_data.570500,isf_wolisso_data.570501,isf_wolisso_data.570600,isf_wolisso_data.570601","","","Vehicles & Motorcycles","Vehicles & Motorcycles Total","10","Preserve balance sign","Cash Out Flow"
"isf_monthly_key_data_report_22","","isf_wolisso_data.580100,isf_wolisso_data.580101,isf_wolisso_data.580200,isf_wolisso_data.580300,isf_wolisso_data.580301,isf_wolisso_data.580400,isf_wolisso_data.580401,isf_wolisso_data.580500,isf_wolisso_data.580501,isf_wolisso_data.580600,isf_wolisso_data.580601,__export__.account_account_479,__export__.account_account_692","","","Maintenance & Repairs","Maintenance & Repairs Total","11","Preserve balance sign","Cash Out Flow"
"isf_monthly_key_data_report_23","","isf_wolisso_data.590100,isf_wolisso_data.590101,isf_wolisso_data.590200,isf_wolisso_data.590300,isf_wolisso_data.590400,__export__.account_account_563,__export__.account_account_696,isf_wolisso_data.590500,isf_wolisso_data.590600,isf_wolisso_data.590601,isf_wolisso_data.590700,isf_wolisso_data.590701,isf_wolisso_data.590800,isf_wolisso_data.590801,isf_wolisso_data.590900,isf_wolisso_data.591000,isf_wolisso_data.591100,isf_wolisso_data.591200,isf_wolisso_data.591201,__export__.account_account_481,__export__.account_account_482,isf_wolisso_data.591300,isf_wolisso_data.591301,isf_wolisso_data.591400,isf_wolisso_data.591500,isf_wolisso_data.591501,isf_wolisso_data.600100,isf_wolisso_data.600200,isf_wolisso_data.600300,isf_wolisso_data.600301,isf_wolisso_data.610100,isf_wolisso_data.610200,isf_wolisso_data.610300,isf_wolisso_data.610400,isf_wolisso_data.610401,isf_wolisso_data.610402","","","General & Administration","General & Administration Total","12","Preserve balance sign","Cash Out Flow"
"isf_monthly_key_data_report_24","","isf_wolisso_data.620101,isf_wolisso_data.620102,isf_wolisso_data.620199,__export__.account_account_590,isf_wolisso_data.620301,isf_wolisso_data.620302,isf_wolisso_data.620303,isf_wolisso_data.620304,isf_wolisso_data.620305,__export__.account_account_486,__export__.account_account_488,isf_wolisso_data.620200,isf_wolisso_data.620401,isf_wolisso_data.620402,isf_wolisso_data.620403,__export__.account_account_487,__export__.account_account_616,__export__.account_account_620,__export__.account_account_489,__export__.account_account_490,__export__.account_account_502,__export__.account_account_504,__export__.account_account_559,__export__.account_account_560,__export__.account_account_561,__export__.account_account_562,__export__.account_account_597,__export__.account_account_621,__export__.account_account_623,__export__.account_account_624,__export__.account_account_626,__export__.account_account_627,__export__.account_account_629,__export__.account_account_630,__export__.account_account_632,__export__.account_account_633,__export__.account_account_635,__export__.account_account_637,__export__.account_account_639,__export__.account_account_641,__export__.account_account_643","","","Project Realization Costs","Project Realization Costs Total","13","Preserve balance sign","Cash Out Flow"
"isf_monthly_key_data_report_25","","isf_wolisso_data.440200,isf_wolisso_data.440300,isf_wolisso_data.630001,isf_wolisso_data.630100,isf_wolisso_data.630101,__export__.account_account_577,isf_wolisso_data.630200,isf_wolisso_data.630201,isf_wolisso_data.630300,isf_wolisso_data.630301,__export__.account_account_575,isf_wolisso_data.630400,isf_wolisso_data.630401,isf_wolisso_data.630500,isf_wolisso_data.630501,__export__.account_account_693,isf_wolisso_data.630600,isf_wolisso_data.630601,isf_wolisso_data.630700,isf_wolisso_data.630701,__export__.account_account_694,__export__.account_account_695,__export__.account_account_699,isf_wolisso_data.630803","","","Depreciations","Depreciations Total","1","Preserve balance sign","Depreciations"
